<?xml version="1.0" encoding="utf-8"?>
<!-- Generator: Adobe Illustrator 16.0.0, SVG Export Plug-In . SVG Version: 6.00 Build 0)  -->
<!DOCTYPE svg PUBLIC "-//W3C//DTD SVG 1.1//EN" "http://www.w3.org/Graphics/SVG/1.1/DTD/svg11.dtd">
<svg version="1.1" id="Calque_1" xmlns="http://www.w3.org/2000/svg" xmlns:xlink="http://www.w3.org/1999/xlink" x="0px" y="0px"
	 width="141.732px" height="141.732px" viewBox="0 0 141.732 141.732" enable-background="new 0 0 141.732 141.732"
	 xml:space="preserve">
<g>
	<circle fill="#FFFFFF" cx="70.866" cy="70.866" r="70.866"/>
	<path fill="none" d="M94.963,50.792c-0.415-0.982-1.092-1.826-1.941-2.447C93.871,48.966,94.548,49.81,94.963,50.792z"/>
	<path fill="none" d="M85.83,57.538c-1.275-1.071-2.086-2.678-2.086-4.474c0-2.211,1.229-4.135,3.043-5.127
		c-1.813,0.992-3.043,2.916-3.043,5.127C83.744,54.86,84.555,56.467,85.83,57.538z"/>
	<path fill="none" d="M70.934,132.125"/>
	<path fill="none" d="M71.034,132.125"/>
	<path fill="none" d="M48.946,48.345c-0.851,0.621-1.526,1.465-1.941,2.447C47.419,49.81,48.095,48.966,48.946,48.345z"/>
	<path fill="none" d="M58.224,53.064c0,1.796-0.812,3.402-2.087,4.474C57.412,56.467,58.224,54.86,58.224,53.064
		c0-2.211-1.23-4.135-3.043-5.127C56.994,48.929,58.224,50.854,58.224,53.064z"/>
	<path fill="none" d="M48.946,48.345c0.964-0.704,2.152-1.12,3.438-1.12c1.013,0,1.966,0.258,2.796,0.712
		c1.813,0.992,3.043,2.916,3.043,5.127c0,1.796-0.812,3.402-2.087,4.474c-1.015,0.853-2.324,1.366-3.752,1.366
		c-3.227,0-5.838-2.614-5.838-5.839c0-0.806,0.163-1.574,0.458-2.272C47.419,49.81,48.095,48.966,48.946,48.345z"/>
	<path fill="#1B1B1A" d="M52.384,58.904c1.429,0,2.738-0.513,3.752-1.366c1.275-1.071,2.087-2.678,2.087-4.474
		c0-2.211-1.23-4.135-3.043-5.127c-0.831-0.454-1.784-0.712-2.796-0.712c-1.286,0-2.474,0.416-3.438,1.12
		c-0.851,0.621-1.526,1.465-1.941,2.447c-0.295,0.698-0.458,1.466-0.458,2.272C46.546,56.29,49.158,58.904,52.384,58.904z"/>
	<path fill="#221F1C" d="M55.181,47.938c-0.831-0.454-1.784-0.712-2.796-0.712c-1.286,0-2.474,0.416-3.438,1.12
		c0.964-0.704,2.152-1.12,3.438-1.12C53.397,47.226,54.35,47.484,55.181,47.938z"/>
	<path fill="#221F1C" d="M52.384,58.904c1.429,0,2.738-0.513,3.752-1.366C55.122,58.391,53.813,58.904,52.384,58.904
		c-3.227,0-5.838-2.614-5.838-5.839c0-0.806,0.163-1.574,0.458-2.272c-0.295,0.698-0.458,1.466-0.458,2.272
		C46.546,56.29,49.158,58.904,52.384,58.904z"/>
	<path fill="#E30613" d="M33.17,80.63c0.089-0.277,0.184-0.552,0.283-0.824C33.353,80.079,33.259,80.353,33.17,80.63z"/>
	<path fill="#E30613" d="M33.738,79.068c0.29-0.711,0.617-1.402,0.979-2.074C34.354,77.664,34.027,78.357,33.738,79.068z"/>
	<path fill="#E30613" d="M42.395,97.931c-0.608-0.298-1.232-0.588-1.863-0.877c0.887,0.407,1.753,0.82,2.598,1.24
		c-0.146-0.072-0.29-0.146-0.438-0.217C42.592,98.028,42.495,97.977,42.395,97.931z"/>
	<path fill="#E30613" d="M57.896,120.802c0.108-0.009,0.215-0.021,0.319-0.035c-0.198,0.024-0.403,0.041-0.614,0.053
		c0.06-0.002,0.122-0.004,0.18-0.01C57.818,120.808,57.857,120.806,57.896,120.802z"/>
	<path fill="#E30613" d="M58.504,120.723c-0.094,0.017-0.19,0.031-0.289,0.044c0.113-0.014,0.224-0.029,0.331-0.05
		C58.532,120.72,58.519,120.721,58.504,120.723z"/>
	<path fill="#E30613" d="M44.159,98.817c0.179,0.093,0.354,0.187,0.53,0.278c-0.281-0.148-0.56-0.295-0.846-0.442
		C43.949,98.708,44.054,98.762,44.159,98.817z"/>
	<path fill="#E30613" d="M59.048,109.951c0.077,0.097,0.152,0.193,0.227,0.29c-0.057-0.075-0.114-0.15-0.174-0.226
		C59.083,109.994,59.065,109.972,59.048,109.951z"/>
	<path fill="#E30613" d="M59.475,110.509c0.062,0.084,0.125,0.166,0.185,0.25c-0.12-0.168-0.245-0.336-0.375-0.504
		C59.349,110.339,59.412,110.424,59.475,110.509z"/>
	<path fill="#E30613" d="M56.794,107.479c-0.052-0.048-0.104-0.098-0.157-0.147c0.366,0.351,0.714,0.701,1.045,1.05
		c-0.05-0.055-0.1-0.108-0.152-0.162C57.295,107.972,57.048,107.726,56.794,107.479z"/>
	<path fill="#E30613" d="M57.735,108.439c0.054,0.057,0.107,0.113,0.16,0.17c-0.069-0.075-0.14-0.15-0.21-0.225
		C57.701,108.402,57.718,108.42,57.735,108.439z"/>
	<path fill="#E30613" d="M57.895,108.609c0.125,0.137,0.249,0.271,0.369,0.407c-0.013-0.015-0.026-0.03-0.039-0.045
		C58.118,108.851,58.007,108.729,57.895,108.609z"/>
	<path fill="#E30613" d="M58.47,109.253c0.015,0.018,0.031,0.035,0.046,0.053c-0.04-0.047-0.081-0.092-0.12-0.14
		C58.42,109.196,58.445,109.224,58.47,109.253z"/>
	<path fill="#E30613" d="M58.814,109.662c0.043,0.053,0.086,0.105,0.128,0.158c-0.024-0.03-0.048-0.061-0.073-0.091
		C58.851,109.707,58.833,109.685,58.814,109.662z"/>
	<path fill="#E30613" d="M58.663,120.692c0.148-0.029,0.291-0.064,0.429-0.104C58.953,120.626,58.811,120.662,58.663,120.692z"/>
	<path fill="#E30613" d="M59.81,120.318c0.123-0.059,0.24-0.121,0.352-0.193c0.047-0.029,0.092-0.063,0.137-0.094
		c-0.218,0.153-0.46,0.281-0.722,0.388c0.037-0.015,0.078-0.025,0.114-0.042C59.733,120.361,59.771,120.337,59.81,120.318z"/>
	<path fill="#E30613" d="M61.761,115.505c0.013,0.083,0.022,0.165,0.03,0.248c-0.013-0.139-0.027-0.276-0.05-0.415
		C61.749,115.395,61.755,115.45,61.761,115.505z"/>
	<path fill="#E30613" d="M61.122,119.17c-0.052,0.077-0.106,0.153-0.162,0.226c0.036-0.045,0.071-0.089,0.104-0.138
		C61.083,119.23,61.104,119.201,61.122,119.17z"/>
	<path fill="#E30613" d="M61.259,118.931c-0.043,0.082-0.089,0.162-0.137,0.239c0.081-0.122,0.156-0.251,0.224-0.392
		C61.319,118.83,61.288,118.88,61.259,118.931z"/>
	<path fill="#E30613" d="M61.571,118.215c0.033-0.104,0.062-0.209,0.087-0.314C61.632,118.006,61.604,118.112,61.571,118.215z"/>
	<path fill="#E30613" d="M61.737,117.52c-0.015,0.084-0.031,0.169-0.049,0.252c0.014-0.063,0.027-0.126,0.039-0.189
		C61.732,117.562,61.734,117.541,61.737,117.52z"/>
	<path fill="#E30613" d="M61.827,116.693c-0.008,0.23-0.033,0.459-0.067,0.684c0.024-0.146,0.042-0.296,0.055-0.445
		C61.82,116.853,61.824,116.774,61.827,116.693z"/>
	<path fill="#E30613" d="M60.718,119.673c0.015-0.016,0.028-0.033,0.043-0.049c-0.059,0.064-0.118,0.124-0.181,0.182
		C60.628,119.765,60.673,119.719,60.718,119.673z"/>
	<path fill="#E30613" d="M61.826,116.205c0-0.043-0.002-0.086-0.004-0.129C61.823,116.119,61.825,116.162,61.826,116.205z"/>
	<path fill="#E30613" d="M61.828,116.25c0-0.015-0.001-0.03-0.002-0.046c0.001,0.063,0.001,0.125,0.002,0.188
		C61.828,116.345,61.83,116.297,61.828,116.25z"/>
	<path fill="#E30613" d="M61.083,113.221c0.051,0.116,0.1,0.232,0.146,0.349c-0.081-0.205-0.17-0.41-0.268-0.617
		C61.003,113.042,61.043,113.134,61.083,113.221z"/>
	<path fill="#E30613" d="M61.538,114.468c-0.05-0.174-0.105-0.351-0.167-0.526c-0.026-0.075-0.056-0.149-0.084-0.226
		c0.153,0.405,0.274,0.805,0.363,1.199c-0.019-0.089-0.035-0.178-0.059-0.269C61.575,114.586,61.554,114.529,61.538,114.468z"/>
	<path fill="#E30613" d="M54.168,105.182c0.175,0.139,0.347,0.28,0.516,0.419c-0.269-0.223-0.542-0.444-0.823-0.668
		C53.965,105.017,54.066,105.101,54.168,105.182z"/>
	<path fill="#E30613" d="M60.183,111.541c0.104,0.165,0.196,0.328,0.29,0.489c-0.103-0.181-0.207-0.362-0.322-0.544
		C60.161,111.503,60.172,111.523,60.183,111.541z"/>
	<path fill="#E30613" d="M60.587,112.222c-0.014-0.023-0.029-0.049-0.042-0.072c0.121,0.219,0.233,0.436,0.34,0.652
		c-0.055-0.112-0.109-0.224-0.169-0.336C60.673,112.385,60.632,112.304,60.587,112.222z"/>
	<path fill="#E30613" d="M52.855,104.166c-0.328-0.244-0.665-0.486-1.007-0.729c-0.114-0.08-0.231-0.16-0.347-0.238
		c-0.057-0.041-0.116-0.08-0.172-0.119c0.653,0.451,1.283,0.903,1.884,1.358c-0.084-0.064-0.166-0.128-0.25-0.192
		C52.926,104.22,52.891,104.191,52.855,104.166z"/>
	<path fill="#E30613" d="M49.208,101.685c-0.011-0.007-0.021-0.014-0.032-0.021C49.186,101.671,49.196,101.679,49.208,101.685z"/>
	<path fill="#E30613" d="M49.604,101.937c0.127,0.082,0.253,0.162,0.379,0.243c-0.242-0.157-0.488-0.314-0.737-0.472
		C49.367,101.786,49.485,101.861,49.604,101.937z"/>
	<path fill="#E30613" d="M50.357,102.425c-0.091-0.061-0.183-0.121-0.275-0.18c0.383,0.248,0.757,0.5,1.124,0.752
		c-0.147-0.103-0.293-0.203-0.444-0.305C50.629,102.603,50.493,102.513,50.357,102.425z"/>
	<path fill="#E30613" d="M47.575,100.7c0.227,0.132,0.451,0.263,0.672,0.397c-0.074-0.045-0.146-0.091-0.22-0.134
		C47.879,100.875,47.728,100.789,47.575,100.7z"/>
	<path fill="#E30613" d="M55.669,106.443c-0.076-0.066-0.152-0.133-0.23-0.2C55.517,106.309,55.593,106.376,55.669,106.443z"/>
	<path fill="#E30613" d="M55.903,106.651c-0.074-0.067-0.148-0.134-0.224-0.199C55.753,106.518,55.829,106.584,55.903,106.651z"/>
	<path fill="#E30613" d="M45.386,99.465c-0.063-0.034-0.125-0.067-0.188-0.102C45.261,99.398,45.323,99.432,45.386,99.465z"/>
	<path fill="#E30613" d="M45.396,99.471c0.127,0.068,0.253,0.138,0.379,0.206c-0.089-0.049-0.179-0.098-0.269-0.147
		C45.47,99.511,45.433,99.492,45.396,99.471z"/>
	<path fill="#E30613" d="M46.574,100.123c0.047,0.023,0.095,0.051,0.143,0.078c-0.24-0.137-0.483-0.271-0.728-0.406
		C46.186,99.902,46.38,100.011,46.574,100.123z"/>
	<path fill="#E30613" d="M55.085,105.936c0.092,0.076,0.178,0.155,0.269,0.233c-0.078-0.068-0.155-0.138-0.235-0.205
		C55.108,105.954,55.097,105.944,55.085,105.936z"/>
	<path fill="#E30613" d="M54.773,105.671c-0.013-0.01-0.026-0.02-0.038-0.029c0.016,0.014,0.032,0.025,0.047,0.039
		C54.779,105.677,54.775,105.675,54.773,105.671z"/>
	<path fill="#E30613" d="M59.662,110.761c-0.001,0-0.001-0.002-0.002-0.002c0.172,0.243,0.337,0.486,0.491,0.727
		c-0.002-0.004-0.004-0.008-0.006-0.012C59.993,111.239,59.831,111,59.662,110.761z"/>
	<path fill="#E30613" d="M53.608,104.739c-0.104-0.08-0.209-0.159-0.313-0.239C53.399,104.58,53.504,104.66,53.608,104.739z"/>
	<path fill="#E30613" d="M53.781,104.872c0.021,0.017,0.042,0.032,0.063,0.05c-0.001-0.002-0.002-0.002-0.003-0.004
		C53.821,104.902,53.801,104.886,53.781,104.872z"/>
	<path fill="#E30613" d="M53.861,104.933c-0.004-0.004-0.009-0.008-0.014-0.011C53.852,104.926,53.855,104.931,53.861,104.933z"/>
	<path fill="#E30613" d="M55.979,106.719c0.034,0.03,0.067,0.062,0.101,0.091c-0.031-0.027-0.062-0.057-0.093-0.084
		C55.985,106.723,55.982,106.721,55.979,106.719z"/>
	<path fill="#E30613" d="M56.572,107.271c0.004,0.003,0.009,0.008,0.013,0.012c-0.006-0.008-0.014-0.014-0.021-0.02
		C56.568,107.265,56.57,107.268,56.572,107.271z"/>
	<path fill="#E30613" d="M43.129,98.294c0.238,0.119,0.479,0.24,0.714,0.358c-0.026-0.013-0.052-0.027-0.078-0.04
		C43.555,98.506,43.342,98.4,43.129,98.294z"/>
	<path fill="#E30613" d="M60.96,112.951c-0.018-0.037-0.037-0.075-0.057-0.111C60.923,112.876,60.942,112.914,60.96,112.951z"/>
	<path fill="#E30613" d="M32.136,87.193c0-0.02,0.002-0.039,0.002-0.059C32.138,87.154,32.135,87.173,32.136,87.193
		c-0.001,2.336,0.235,4.58,0.669,6.734c0.003,0.001,0.006,0.002,0.009,0.004c-0.002-0.002-0.005-0.003-0.008-0.004
		C32.372,91.773,32.136,89.529,32.136,87.193z"/>
	<path fill="#E30613" d="M44.689,99.095c0.169,0.09,0.341,0.179,0.509,0.269c-0.024-0.014-0.048-0.025-0.071-0.039
		C44.981,99.25,44.833,99.171,44.689,99.095z"/>
	<path fill="#E30613" d="M48.248,101.097c0.079,0.047,0.156,0.094,0.235,0.141c-0.062-0.036-0.123-0.074-0.185-0.111
		C48.28,101.117,48.264,101.107,48.248,101.097z"/>
	<path fill="#E30613" d="M46.764,100.227c0.183,0.104,0.357,0.208,0.538,0.313c-0.171-0.102-0.339-0.201-0.514-0.302
		C46.78,100.236,46.772,100.231,46.764,100.227z"/>
	<path fill="#E30613" d="M56.229,120.824c0.021,0.002,0.045,0.006,0.067,0.006C56.273,120.828,56.25,120.826,56.229,120.824z"/>
	<path fill="#E30613" d="M56.302,120.83c-0.001,0-0.004,0-0.006,0c0.01,0.001,0.02,0.002,0.029,0.002
		C56.317,120.83,56.31,120.83,56.302,120.83z"/>
	<path fill="#E30613" d="M57.541,120.824c-0.131,0.006-0.258,0.016-0.396,0.018h0.03C57.302,120.839,57.42,120.83,57.541,120.824z"
		/>
	<polygon fill="#E30613" points="58.561,120.714 58.546,120.717 58.548,120.717 	"/>
	<path fill="#E30613" d="M58.582,120.71c0.027-0.006,0.053-0.014,0.081-0.019C58.635,120.696,58.609,120.705,58.582,120.71z"/>
	<path fill="#E30613" d="M61.718,115.221c-0.018-0.089-0.04-0.179-0.06-0.267C61.678,115.043,61.7,115.132,61.718,115.221z"/>
	<path fill="#E30613" d="M61.718,115.221c0.008,0.039,0.016,0.078,0.022,0.117v-0.005C61.734,115.296,61.727,115.259,61.718,115.221
		z"/>
	<path fill="#E30613" d="M60.307,120.024c-0.003,0.002-0.006,0.004-0.008,0.007c0.025-0.019,0.049-0.037,0.073-0.055
		C60.351,119.992,60.329,120.008,60.307,120.024z"/>
	<path fill="#E30613" d="M60.412,119.946c0.045-0.036,0.09-0.071,0.134-0.11C60.502,119.874,60.458,119.91,60.412,119.946z"/>
	<path fill="#E30613" d="M60.58,119.806c0,0-0.001,0-0.002,0.002C60.579,119.808,60.58,119.808,60.58,119.806z"/>
	<path fill="#E30613" d="M56.369,120.832H56.34c0.074,0.003,0.146,0.006,0.218,0.007C56.496,120.837,56.433,120.834,56.369,120.832z
		"/>
	<path fill="#E30613" d="M57.007,120.841c-0.142,0-0.287,0-0.434-0.003C56.72,120.842,56.865,120.843,57.007,120.841z"/>
	<path fill="#E30613" d="M61.817,116c0,0.006,0.001,0.012,0.001,0.018c0,0,0-0.002,0-0.004
		C61.818,116.009,61.818,116.004,61.817,116z"/>
	<path fill="#E30613" d="M61.346,118.779c0,0,0-0.002,0.001-0.002C61.346,118.777,61.346,118.777,61.346,118.779z"/>
	<path fill="#E30613" d="M60.944,119.416c-0.059,0.072-0.121,0.143-0.183,0.209C60.825,119.558,60.886,119.488,60.944,119.416
		C60.945,119.416,60.945,119.416,60.944,119.416z"/>
	<path fill="#FFFFFF" d="M20.604,119.333c-0.054-0.355-0.102-0.712-0.147-1.068C20.478,118.63,20.526,118.988,20.604,119.333z"/>
	<path fill="#FFFFFF" d="M22.903,123.018c-0.219-0.202-0.438-0.404-0.655-0.608C22.453,122.626,22.671,122.831,22.903,123.018z"/>
	<path fill="#FFFFFF" d="M33.413,131.01c0.029,0.02,0.056,0.041,0.089,0.055c-0.022-0.014-0.044-0.026-0.066-0.041
		C33.428,131.019,33.42,131.015,33.413,131.01z"/>
	<path fill="#FFFFFF" d="M33.4,131.002c-0.021-0.013-0.041-0.025-0.061-0.038C33.359,130.978,33.379,130.99,33.4,131.002z"/>
	<path fill="#FFFFFF" d="M34.702,130.213c-0.003-0.072-0.016-0.142-0.035-0.21C34.678,130.074,34.69,130.144,34.702,130.213z"/>
	<path fill="none" d="M86.787,47.938c0.83-0.454,1.782-0.712,2.795-0.712c1.287,0,2.475,0.416,3.439,1.12
		c0.85,0.621,1.526,1.465,1.941,2.447c0.295,0.698,0.459,1.466,0.459,2.272c0,3.226-2.613,5.839-5.84,5.839
		c-1.428,0-2.736-0.513-3.752-1.366c-1.275-1.071-2.086-2.678-2.086-4.474C83.744,50.854,84.974,48.929,86.787,47.938z"/>
	<polygon fill="#E30613" points="70.982,74.783 70.982,74.787 70.983,74.785 	"/>
	<path fill="#1B1B1A" d="M83.744,53.064c0,1.796,0.811,3.402,2.086,4.474c1.016,0.853,2.324,1.366,3.753,1.366
		c3.226,0,5.839-2.614,5.839-5.839c0-0.806-0.164-1.574-0.459-2.272c-0.415-0.982-1.092-1.826-1.941-2.447
		c-0.965-0.704-2.152-1.12-3.438-1.12c-1.013,0-1.966,0.258-2.796,0.712C84.974,48.929,83.744,50.854,83.744,53.064z"/>
	<path fill="#221F1C" d="M93.021,48.345c-0.965-0.704-2.152-1.12-3.439-1.12c-1.013,0-1.965,0.258-2.795,0.712
		c0.83-0.454,1.783-0.712,2.796-0.712C90.869,47.226,92.057,47.642,93.021,48.345z"/>
	<path fill="#221F1C" d="M89.583,58.904c-1.429,0-2.737-0.513-3.753-1.366C86.846,58.391,88.154,58.904,89.583,58.904
		c3.226,0,5.839-2.614,5.839-5.839c0-0.806-0.164-1.574-0.459-2.272c0.295,0.698,0.459,1.466,0.459,2.272
		C95.422,56.29,92.809,58.904,89.583,58.904z"/>
	<polygon fill="#E30613" points="70.984,74.787 70.984,74.783 70.983,74.785 	"/>
	<polyline fill="#E30613" points="70.984,74.787 70.983,74.785 70.982,74.787 	"/>
	<path fill="#E30613" d="M108.515,79.806c0.099,0.272,0.193,0.547,0.282,0.824C108.709,80.353,108.614,80.079,108.515,79.806z"/>
	<path fill="#E30613" d="M107.249,76.994c0.362,0.672,0.689,1.363,0.979,2.074C107.939,78.357,107.613,77.664,107.249,76.994z"/>
	<path fill="#E30613" d="M99.275,98.078c-0.146,0.07-0.291,0.145-0.438,0.217c0.844-0.42,1.711-0.833,2.598-1.24
		c-0.631,0.289-1.254,0.579-1.863,0.877C99.473,97.977,99.375,98.028,99.275,98.078z"/>
	<path fill="#E30613" d="M84.187,120.81c0.058,0.006,0.12,0.008,0.18,0.01c-0.211-0.012-0.417-0.028-0.614-0.053
		c0.104,0.014,0.211,0.026,0.319,0.035C84.11,120.806,84.148,120.808,84.187,120.81z"/>
	<path fill="#E30613" d="M83.463,120.723c-0.015-0.002-0.028-0.003-0.041-0.006c0.106,0.021,0.217,0.036,0.33,0.05
		C83.654,120.754,83.558,120.74,83.463,120.723z"/>
	<path fill="#E30613" d="M97.808,98.817c0.105-0.055,0.211-0.109,0.317-0.164c-0.287,0.147-0.565,0.294-0.847,0.442
		C97.455,99.003,97.629,98.91,97.808,98.817z"/>
	<path fill="#E30613" d="M82.692,110.241c0.073-0.097,0.149-0.193,0.228-0.29c-0.019,0.021-0.036,0.043-0.053,0.064
		C82.807,110.09,82.75,110.166,82.692,110.241z"/>
	<path fill="#E30613" d="M82.492,110.509c0.063-0.085,0.125-0.17,0.189-0.254c-0.129,0.168-0.254,0.336-0.374,0.504
		C82.367,110.675,82.432,110.593,82.492,110.509z"/>
	<path fill="#E30613" d="M84.436,108.219c-0.051,0.054-0.101,0.107-0.15,0.162c0.33-0.349,0.679-0.699,1.045-1.05
		c-0.053,0.05-0.105,0.1-0.157,0.147C84.92,107.726,84.672,107.972,84.436,108.219z"/>
	<path fill="#E30613" d="M84.231,108.439c0.018-0.019,0.034-0.037,0.052-0.055c-0.071,0.074-0.142,0.149-0.211,0.225
		C84.125,108.552,84.178,108.496,84.231,108.439z"/>
	<path fill="#E30613" d="M83.703,109.016c0.12-0.136,0.243-0.271,0.369-0.407c-0.112,0.12-0.223,0.242-0.33,0.362
		C83.729,108.986,83.717,109.001,83.703,109.016z"/>
	<path fill="#E30613" d="M83.497,109.253c0.024-0.029,0.05-0.058,0.075-0.087c-0.041,0.048-0.08,0.093-0.121,0.14
		C83.467,109.289,83.482,109.271,83.497,109.253z"/>
	<path fill="#E30613" d="M83.025,109.82c0.042-0.053,0.085-0.105,0.128-0.158c-0.019,0.023-0.037,0.045-0.056,0.067
		C83.072,109.759,83.049,109.79,83.025,109.82z"/>
	<path fill="#E30613" d="M82.876,120.587c0.138,0.04,0.28,0.075,0.429,0.104C83.156,120.662,83.014,120.626,82.876,120.587z"/>
	<path fill="#E30613" d="M82.157,120.318c0.039,0.02,0.077,0.043,0.118,0.059c0.037,0.017,0.078,0.027,0.114,0.042
		c-0.261-0.106-0.503-0.234-0.722-0.388c0.045,0.031,0.09,0.064,0.138,0.094C81.916,120.197,82.034,120.259,82.157,120.318z"/>
	<path fill="#E30613" d="M80.205,115.505c0.008-0.056,0.013-0.11,0.021-0.167c-0.023,0.139-0.037,0.276-0.051,0.415
		C80.184,115.67,80.193,115.588,80.205,115.505z"/>
	<path fill="#E30613" d="M81.008,119.396c-0.057-0.072-0.111-0.148-0.163-0.226c0.019,0.03,0.039,0.06,0.059,0.088
		C80.936,119.307,80.971,119.351,81.008,119.396z"/>
	<path fill="#E30613" d="M80.708,118.931c-0.028-0.051-0.06-0.102-0.087-0.152c0.068,0.141,0.143,0.27,0.224,0.392
		C80.797,119.093,80.751,119.013,80.708,118.931z"/>
	<path fill="#E30613" d="M80.309,117.901c0.025,0.105,0.055,0.21,0.088,0.314C80.363,118.112,80.334,118.006,80.309,117.901z"/>
	<path fill="#E30613" d="M80.279,117.772c-0.018-0.083-0.035-0.168-0.049-0.252c0.002,0.021,0.004,0.042,0.009,0.063
		C80.252,117.646,80.265,117.708,80.279,117.772z"/>
	<path fill="#E30613" d="M80.207,117.376c-0.033-0.225-0.059-0.453-0.067-0.684c0.003,0.081,0.007,0.16,0.013,0.238
		C80.166,117.081,80.184,117.23,80.207,117.376z"/>
	<path fill="#E30613" d="M81.387,119.806c-0.063-0.058-0.122-0.117-0.182-0.182c0.016,0.016,0.029,0.033,0.045,0.049
		C81.295,119.719,81.34,119.765,81.387,119.806z"/>
	<path fill="#E30613" d="M80.146,116.076c-0.003,0.043-0.004,0.086-0.005,0.129C80.143,116.162,80.143,116.119,80.146,116.076z"/>
	<path fill="#E30613" d="M80.139,116.393c0-0.063,0.001-0.125,0.002-0.188c0,0.016-0.001,0.031-0.002,0.046
		C80.138,116.297,80.139,116.345,80.139,116.393z"/>
	<path fill="#E30613" d="M80.885,113.221c0.039-0.087,0.08-0.179,0.121-0.269c-0.098,0.207-0.187,0.412-0.268,0.617
		C80.785,113.454,80.833,113.337,80.885,113.221z"/>
	<path fill="#E30613" d="M80.43,114.468c-0.017,0.061-0.037,0.118-0.053,0.179c-0.024,0.091-0.04,0.18-0.059,0.269
		c0.088-0.395,0.21-0.794,0.363-1.199c-0.029,0.076-0.059,0.15-0.085,0.226C80.535,114.118,80.479,114.294,80.43,114.468z"/>
	<path fill="#E30613" d="M87.799,105.182c0.102-0.081,0.203-0.165,0.308-0.249c-0.282,0.224-0.554,0.445-0.823,0.668
		C87.452,105.462,87.623,105.321,87.799,105.182z"/>
	<path fill="#E30613" d="M81.784,111.541c0.011-0.018,0.022-0.037,0.032-0.055c-0.115,0.182-0.219,0.363-0.322,0.544
		C81.588,111.869,81.68,111.706,81.784,111.541z"/>
	<path fill="#E30613" d="M81.252,112.466c-0.06,0.112-0.115,0.224-0.17,0.336c0.107-0.217,0.22-0.434,0.342-0.652
		c-0.014,0.023-0.03,0.049-0.043,0.072C81.336,112.304,81.295,112.385,81.252,112.466z"/>
	<path fill="#E30613" d="M90.119,103.437c-0.342,0.242-0.68,0.484-1.007,0.729c-0.036,0.025-0.071,0.055-0.107,0.08
		c-0.085,0.064-0.167,0.128-0.25,0.192c0.601-0.455,1.231-0.907,1.884-1.358c-0.057,0.039-0.115,0.078-0.173,0.119
		C90.351,103.277,90.232,103.357,90.119,103.437z"/>
	<path fill="#E30613" d="M92.792,101.665c-0.011,0.007-0.021,0.014-0.032,0.021C92.771,101.679,92.781,101.671,92.792,101.665z"/>
	<path fill="#E30613" d="M92.363,101.937c0.119-0.076,0.237-0.151,0.357-0.229c-0.248,0.157-0.494,0.314-0.736,0.472
		C92.109,102.099,92.236,102.019,92.363,101.937z"/>
	<path fill="#E30613" d="M91.204,102.693c-0.149,0.102-0.296,0.202-0.443,0.305c0.366-0.252,0.741-0.504,1.124-0.752
		c-0.092,0.059-0.184,0.119-0.275,0.18C91.475,102.513,91.338,102.603,91.204,102.693z"/>
	<path fill="#E30613" d="M93.72,101.097c0.222-0.135,0.446-0.266,0.673-0.397c-0.152,0.089-0.305,0.176-0.453,0.264
		C93.866,101.006,93.793,101.052,93.72,101.097z"/>
	<path fill="#E30613" d="M86.527,106.243c-0.077,0.067-0.154,0.134-0.229,0.2C86.374,106.376,86.451,106.309,86.527,106.243z"/>
	<path fill="#E30613" d="M86.289,106.452c-0.076,0.065-0.151,0.132-0.225,0.199C86.139,106.584,86.213,106.518,86.289,106.452z"/>
	<path fill="#E30613" d="M96.77,99.364c-0.063,0.034-0.126,0.067-0.189,0.102C96.644,99.432,96.707,99.398,96.77,99.364z"/>
	<path fill="#E30613" d="M96.191,99.677c0.126-0.068,0.252-0.138,0.379-0.206c-0.037,0.021-0.073,0.04-0.109,0.059
		C96.371,99.58,96.28,99.628,96.191,99.677z"/>
	<path fill="#E30613" d="M95.394,100.123c0.193-0.111,0.388-0.221,0.585-0.328c-0.245,0.135-0.488,0.27-0.729,0.406
		C95.299,100.173,95.346,100.146,95.394,100.123z"/>
	<path fill="#E30613" d="M86.613,106.169c0.09-0.078,0.178-0.157,0.269-0.233c-0.011,0.008-0.023,0.018-0.034,0.028
		C86.768,106.032,86.691,106.101,86.613,106.169z"/>
	<path fill="#E30613" d="M87.185,105.681c0.017-0.014,0.032-0.025,0.048-0.039c-0.014,0.01-0.025,0.02-0.038,0.029
		C87.191,105.675,87.188,105.677,87.185,105.681z"/>
	<path fill="#E30613" d="M81.823,111.474c-0.003,0.004-0.005,0.008-0.007,0.012c0.153-0.24,0.318-0.483,0.491-0.727
		c-0.001,0-0.001,0.002-0.002,0.002C82.137,111,81.975,111.239,81.823,111.474z"/>
	<path fill="#E30613" d="M88.673,104.5c-0.105,0.08-0.21,0.159-0.313,0.239C88.463,104.66,88.568,104.58,88.673,104.5z"/>
	<path fill="#E30613" d="M88.122,104.921c0.021-0.018,0.042-0.033,0.063-0.05c-0.02,0.015-0.039,0.03-0.06,0.046
		C88.125,104.919,88.123,104.919,88.122,104.921z"/>
	<path fill="#E30613" d="M88.121,104.922c-0.006,0.003-0.01,0.007-0.015,0.011C88.111,104.931,88.115,104.926,88.121,104.922z"/>
	<path fill="#E30613" d="M85.887,106.81c0.033-0.029,0.066-0.061,0.101-0.091c-0.003,0.002-0.005,0.004-0.007,0.007
		C85.949,106.753,85.918,106.783,85.887,106.81z"/>
	<path fill="#E30613" d="M85.395,107.271c0.002-0.003,0.006-0.006,0.008-0.008c-0.007,0.006-0.014,0.012-0.021,0.02
		C85.387,107.279,85.391,107.274,85.395,107.271z"/>
	<path fill="#E30613" d="M98.125,98.653c0.234-0.118,0.475-0.239,0.713-0.358c-0.212,0.105-0.426,0.212-0.636,0.318
		C98.176,98.625,98.15,98.64,98.125,98.653z"/>
	<path fill="#E30613" d="M81.063,112.839c-0.019,0.036-0.039,0.074-0.056,0.111C81.024,112.914,81.045,112.876,81.063,112.839z"/>
	<path fill="#E30613" d="M109.161,93.927c-0.003,0.001-0.005,0.002-0.009,0.004C109.156,93.929,109.159,93.928,109.161,93.927
		c0.435-2.154,0.671-4.398,0.671-6.734c0-0.02-0.003-0.039-0.003-0.059c0,0.02,0.002,0.039,0.002,0.059
		C109.831,89.529,109.596,91.773,109.161,93.927z"/>
	<path fill="#E30613" d="M96.77,99.364c0.168-0.09,0.339-0.179,0.509-0.269c-0.146,0.076-0.293,0.154-0.438,0.229
		C96.817,99.338,96.793,99.35,96.77,99.364z"/>
	<path fill="#E30613" d="M93.484,101.238c0.078-0.047,0.157-0.094,0.235-0.141c-0.017,0.01-0.032,0.02-0.051,0.029
		C93.607,101.164,93.547,101.202,93.484,101.238z"/>
	<path fill="#E30613" d="M94.666,100.541c0.18-0.105,0.354-0.209,0.537-0.313c-0.008,0.004-0.016,0.009-0.023,0.012
		C95.006,100.339,94.837,100.439,94.666,100.541z"/>
	<path fill="#E30613" d="M85.672,120.83c0.021,0,0.045-0.004,0.066-0.006C85.717,120.826,85.693,120.828,85.672,120.83z"/>
	<path fill="#E30613" d="M85.665,120.83c-0.008,0-0.015,0-0.022,0.002c0.01,0,0.02-0.001,0.029-0.002
		C85.669,120.83,85.668,120.83,85.665,120.83z"/>
	<path fill="#E30613" d="M84.822,120.841c-0.137-0.002-0.266-0.012-0.396-0.018c0.121,0.006,0.24,0.016,0.366,0.018H84.822z"/>
	<path fill="#E30613" d="M83.422,120.717c-0.006-0.001-0.011-0.001-0.017-0.003c0.005,0.002,0.009,0.002,0.015,0.003
		C83.42,120.717,83.42,120.717,83.422,120.717z"/>
	<path fill="#E30613" d="M83.305,120.692c0.027,0.005,0.054,0.013,0.081,0.019C83.358,120.705,83.332,120.696,83.305,120.692z"/>
	<path fill="#E30613" d="M80.309,114.955c-0.02,0.088-0.041,0.178-0.061,0.267C80.268,115.132,80.289,115.043,80.309,114.955z"/>
	<path fill="#E30613" d="M80.227,115.338c0.006-0.039,0.014-0.078,0.021-0.117c-0.008,0.038-0.015,0.075-0.021,0.112V115.338z"/>
	<path fill="#E30613" d="M81.66,120.024c-0.021-0.016-0.043-0.032-0.064-0.048c0.023,0.018,0.048,0.036,0.072,0.055
		C81.666,120.028,81.663,120.026,81.66,120.024z"/>
	<path fill="#E30613" d="M81.422,119.835c0.043,0.039,0.088,0.074,0.133,0.11C81.51,119.91,81.465,119.874,81.422,119.835z"/>
	<path fill="#E30613" d="M81.389,119.808c0-0.002-0.001-0.002-0.002-0.002C81.387,119.808,81.389,119.808,81.389,119.808z"/>
	<path fill="#E30613" d="M85.599,120.832c-0.064,0.003-0.127,0.006-0.19,0.007c0.072-0.001,0.146-0.004,0.219-0.007H85.599z"/>
	<path fill="#E30613" d="M85.395,120.838c-0.147,0.003-0.292,0.003-0.434,0.003C85.103,120.843,85.247,120.842,85.395,120.838z"/>
	<path fill="#E30613" d="M80.148,116.017c0-0.006,0.001-0.012,0.002-0.018c-0.001,0.005-0.002,0.01-0.002,0.014
		C80.148,116.015,80.148,116.017,80.148,116.017z"/>
	<path fill="#E30613" d="M80.62,118.777c0.001,0,0.001,0.002,0.001,0.002C80.621,118.777,80.621,118.777,80.62,118.777z"/>
	<path fill="#E30613" d="M81.023,119.416C81.022,119.416,81.022,119.416,81.023,119.416c0.058,0.072,0.119,0.143,0.182,0.209
		C81.144,119.558,81.082,119.488,81.023,119.416z"/>
	<path fill="#FFFFFF" d="M121.51,118.265c-0.045,0.356-0.093,0.713-0.146,1.068C121.441,118.988,121.489,118.63,121.51,118.265z"/>
	<path fill="#FFFFFF" d="M119.719,122.41c-0.217,0.204-0.436,0.406-0.655,0.608C119.297,122.831,119.514,122.626,119.719,122.41z"/>
	<path fill="#FFFFFF" d="M108.465,131.065c0.033-0.014,0.061-0.035,0.09-0.055c-0.008,0.005-0.016,0.009-0.022,0.014
		C108.51,131.039,108.487,131.051,108.465,131.065z"/>
	<path fill="#FFFFFF" d="M108.628,130.964c-0.021,0.013-0.04,0.025-0.062,0.038C108.588,130.99,108.607,130.978,108.628,130.964z"/>
	<path fill="#FFFFFF" d="M107.266,130.213c0.012-0.069,0.023-0.14,0.035-0.21C107.28,130.072,107.268,130.141,107.266,130.213z"/>
	<path fill="#1B1B1A" d="M121.604,108.359c-0.318-2.906-0.613-5.529-0.89-7.943c-0.276-2.412-0.534-4.615-0.775-6.678
		c-0.874-7.496-1.493-12.795-1.895-18.542c-0.4-5.747-0.583-11.943-0.583-21.232c0-5.899-1.24-11.805-3.563-17.339
		c-2.322-5.533-5.727-10.694-10.053-15.104c-4.453-4.534-9.592-8.05-15.15-10.436C83.135,8.698,77.154,7.443,71.02,7.431h-0.036
		h-0.035c-6.136,0.012-12.116,1.268-17.676,3.654c-5.56,2.386-10.698,5.902-15.15,10.436c-4.327,4.41-7.73,9.571-10.053,15.104
		c-2.322,5.534-3.563,11.439-3.563,17.339c0,9.289-0.182,15.485-0.583,21.232c-0.4,5.747-1.02,11.046-1.894,18.542
		c-0.242,2.063-0.499,4.266-0.775,6.678c-0.277,2.414-0.572,5.037-0.89,7.943c-0.181,1.652-0.26,3.311-0.243,4.963
		c0.017,1.654,0.13,3.305,0.336,4.943c0.022,0.178,0.046,0.356,0.07,0.535c0.024,0.178,0.05,0.355,0.077,0.533
		c0.132,0.588,0.343,1.146,0.621,1.662c0.278,0.516,0.623,0.991,1.023,1.414c0.108,0.102,0.217,0.203,0.327,0.305
		c0.109,0.102,0.218,0.203,0.328,0.304c1.609,1.479,3.287,2.884,5.028,4.21c1.741,1.325,3.545,2.572,5.408,3.736
		c0.01,0.006,0.02,0.013,0.03,0.02c0.01,0.006,0.021,0.012,0.031,0.019c0.002,0.001,0.004,0.003,0.006,0.005
		c0.002,0,0.004,0.002,0.007,0.003c0.003,0.003,0.007,0.005,0.011,0.007c0.003,0.002,0.007,0.005,0.011,0.007
		c0.011,0.007,0.022,0.015,0.033,0.021c0.011,0.007,0.022,0.014,0.033,0.021c0.051,0.021,0.104,0.036,0.158,0.048
		c0.055,0.012,0.11,0.018,0.169,0.018c0.241,0,0.46-0.098,0.619-0.256c0.158-0.158,0.256-0.377,0.256-0.619c0-0.007,0-0.014,0-0.021
		c0-0.006,0-0.014-0.001-0.021c-0.006-0.034-0.012-0.069-0.018-0.104s-0.012-0.069-0.017-0.105
		c-0.163-0.977-0.288-1.965-0.372-2.967c-0.084-1-0.128-2.014-0.128-3.037c0-0.957,0.039-1.906,0.113-2.845
		c0.074-0.939,0.182-1.868,0.323-2.787c3.057-0.026,5.935,0.21,8.591,0.546c2.657,0.337,5.094,0.775,7.269,1.148
		c0,0-0.001-0.001-0.001-0.002c-0.001-0.001-0.002-0.002-0.002-0.002c0,0,0-0.001-0.001-0.001c0-0.001,0-0.001,0-0.001
		c0.233,0.04,0.462,0.08,0.689,0.117c0.227,0.039,0.45,0.075,0.671,0.111c0.075,0.013,0.151,0.025,0.226,0.037
		c0.075,0.012,0.15,0.023,0.225,0.035c0.196,0.031,0.39,0.063,0.582,0.092s0.379,0.059,0.566,0.085
		c0.044,0.006,0.089,0.013,0.134,0.019c0.044,0.006,0.089,0.013,0.133,0.02c0.196,0.026,0.387,0.052,0.576,0.074
		c0.188,0.023,0.375,0.044,0.558,0.063c0.061,0.007,0.121,0.013,0.181,0.019c0.061,0.007,0.119,0.013,0.179,0.019
		c0.182,0.018,0.361,0.032,0.537,0.046s0.348,0.023,0.516,0.031c0.011,0,0.022,0.002,0.034,0.003
		c0.011,0.001,0.022,0.002,0.033,0.003c0.001,0,0.002,0,0.003,0c0.002,0,0.003,0,0.003,0c0.004,0,0.008,0,0.012,0
		c0.004,0.001,0.007,0.001,0.011,0.002h0.007h0.008h0.015h0.014c0.032,0.002,0.064,0.002,0.095,0.004
		c0.032,0.002,0.063,0.002,0.094,0.003c0.002,0,0.005,0,0.008,0c0.002,0,0.004,0,0.007,0c0.074,0.001,0.146,0.003,0.219,0.003
		c0.072,0,0.144,0,0.215,0h0.069h0.069c0.068-0.001,0.135-0.004,0.2-0.008c0.065-0.003,0.13-0.007,0.195-0.01
		c0.01-0.001,0.02-0.002,0.03-0.002c0.01,0,0.02-0.001,0.03-0.002h0l0,0c0.105-0.006,0.21-0.013,0.312-0.021
		c0.103-0.009,0.203-0.02,0.302-0.031c0.049-0.006,0.098-0.014,0.146-0.021c0.048-0.008,0.096-0.015,0.143-0.023
		c0.007-0.001,0.014-0.001,0.021-0.003c0.007,0,0.014-0.002,0.021-0.003c0.002-0.001,0.005-0.001,0.008-0.001
		c0.002,0,0.005-0.001,0.007-0.002c0.003,0,0.005,0,0.008-0.001s0.004-0.001,0.007-0.001c0.001,0,0.001,0,0.003-0.001
		c0,0,0.001-0.001,0.002-0.001c0.014-0.004,0.027-0.007,0.041-0.01c0.013-0.004,0.027-0.007,0.041-0.009
		c0.074-0.015,0.147-0.031,0.218-0.049c0.071-0.017,0.142-0.036,0.21-0.056c0.034-0.011,0.069-0.021,0.103-0.031
		c0.034-0.012,0.067-0.022,0.101-0.033c0.033-0.012,0.067-0.023,0.1-0.035s0.065-0.024,0.097-0.037
		c0.014-0.006,0.029-0.011,0.043-0.016c0.015-0.006,0.029-0.011,0.043-0.017c0.13-0.054,0.256-0.111,0.377-0.176
		c0.121-0.065,0.236-0.136,0.345-0.212c0.001-0.002,0.002-0.003,0.003-0.004c0.001-0.001,0.003-0.002,0.004-0.003
		c0.011-0.008,0.022-0.016,0.033-0.023c0.011-0.009,0.022-0.017,0.032-0.024c0.001,0,0.002,0,0.003-0.002
		c0.001,0,0.002-0.002,0.002-0.002c0.006-0.004,0.012-0.01,0.018-0.014c0.005-0.004,0.011-0.008,0.017-0.013
		c0.023-0.019,0.045-0.036,0.068-0.054c0.022-0.02,0.044-0.037,0.066-0.057h0c0,0,0,0,0.001,0c0.001-0.002,0.004-0.004,0.005-0.005
		c0.002-0.002,0.003-0.003,0.005-0.005c0.003-0.003,0.007-0.006,0.011-0.009c0.003-0.003,0.007-0.007,0.01-0.009
		c0-0.001,0-0.002,0.001-0.002s0,0,0.001,0c0.032-0.029,0.063-0.059,0.092-0.089c0.03-0.03,0.06-0.061,0.089-0.093
		c0.031-0.033,0.062-0.067,0.093-0.102c0.03-0.035,0.061-0.071,0.09-0.107c0,0,0,0,0,0c0,0,0,0,0,0
		c0.002-0.003,0.005-0.007,0.007-0.01c0.003-0.003,0.005-0.007,0.008-0.01c0.028-0.036,0.056-0.074,0.083-0.111
		s0.054-0.076,0.08-0.114c0.024-0.038,0.048-0.078,0.07-0.117c0.023-0.04,0.045-0.081,0.067-0.122
		c0.014-0.025,0.029-0.051,0.044-0.076c0.015-0.025,0.029-0.051,0.042-0.076c0,0,0-0.001,0-0.002c0,0,0,0,0,0l0,0h0.001v-0.001
		v-0.001c0.01-0.021,0.02-0.043,0.03-0.064c0.01-0.021,0.02-0.043,0.03-0.065c0-0.001,0-0.001,0-0.001c0-0.001,0-0.002,0.001-0.002
		c0.001-0.002,0.002-0.005,0.003-0.008c0.001-0.002,0.002-0.005,0.003-0.008c0.003-0.008,0.007-0.018,0.011-0.025
		c0.003-0.01,0.007-0.019,0.011-0.027c0.004-0.011,0.01-0.021,0.014-0.034c0.005-0.012,0.009-0.023,0.015-0.035
		c0.009-0.022,0.018-0.046,0.027-0.069c0.009-0.023,0.018-0.047,0.027-0.071v-0.001l0,0c0.004-0.012,0.009-0.024,0.013-0.037
		c0.004-0.012,0.009-0.023,0.013-0.036c0.004-0.013,0.008-0.024,0.012-0.037c0.004-0.013,0.008-0.024,0.013-0.037
		c0.016-0.052,0.032-0.104,0.046-0.157c0.015-0.052,0.028-0.104,0.042-0.157c0.002-0.011,0.005-0.022,0.008-0.034
		c0.002-0.012,0.005-0.022,0.007-0.034c0-0.002,0.001-0.003,0.001-0.005s0.001-0.004,0.002-0.006
		c0.001-0.007,0.002-0.013,0.004-0.02s0.002-0.013,0.004-0.02c0-0.002,0.001-0.004,0.002-0.005c0-0.002,0-0.004,0.001-0.006
		c0.009-0.042,0.018-0.083,0.025-0.126c0.008-0.042,0.017-0.084,0.023-0.126c0.002-0.017,0.005-0.032,0.008-0.049
		s0.005-0.032,0.008-0.05c0.001-0.005,0.002-0.012,0.003-0.018c0-0.006,0.001-0.012,0.002-0.018c0,0,0-0.002,0-0.002
		c0-0.002,0-0.003,0-0.004s0-0.002,0-0.002c0,0,0-0.002,0-0.002c0.017-0.113,0.032-0.226,0.043-0.34
		c0.012-0.113,0.02-0.229,0.024-0.344c0-0.009,0.001-0.018,0.001-0.026c0-0.009,0-0.018,0-0.026l0,0v-0.001c0-0.009,0-0.017,0-0.026
		c0-0.008,0-0.016,0-0.025c0-0.014,0-0.026,0-0.039c0-0.014,0-0.026,0-0.04c0-0.013,0-0.026,0-0.039c0-0.014,0-0.026,0-0.04
		c0-0.005,0-0.01,0-0.014s0-0.009,0-0.014v-0.004v-0.005c0-0.031,0-0.063,0-0.094c0-0.032-0.001-0.063-0.001-0.095
		c0-0.021-0.001-0.043-0.002-0.064c0-0.021-0.001-0.043-0.002-0.064c0-0.002,0-0.005,0-0.007c0-0.003,0-0.005,0-0.008
		c0-0.007-0.001-0.015-0.001-0.021c0-0.008-0.001-0.015-0.001-0.022c0-0.002,0-0.006,0-0.008c0-0.004,0-0.006,0-0.01
		c0,0,0,0,0-0.001s0-0.001,0-0.002c0-0.011-0.001-0.021-0.003-0.03c-0.001-0.011-0.002-0.021-0.004-0.031
		c-0.001-0.008-0.002-0.016-0.002-0.024c-0.001-0.008-0.002-0.016-0.004-0.024c0-0.006-0.001-0.011-0.001-0.017
		c0-0.005-0.001-0.011-0.001-0.017c-0.001-0.011-0.002-0.021-0.003-0.031c-0.001-0.012-0.002-0.021-0.003-0.033
		c0-0.006-0.002-0.012-0.002-0.018s-0.001-0.012-0.001-0.018c-0.004-0.041-0.008-0.083-0.013-0.124
		c-0.004-0.042-0.01-0.083-0.017-0.124c-0.003-0.028-0.006-0.055-0.009-0.083c-0.004-0.028-0.007-0.056-0.011-0.084
		c-0.004-0.02-0.007-0.039-0.01-0.058c-0.004-0.021-0.008-0.04-0.012-0.06c-0.009-0.044-0.02-0.089-0.03-0.133
		c-0.01-0.045-0.021-0.089-0.03-0.134c-0.001-0.007-0.003-0.013-0.005-0.02c-0.001-0.006-0.002-0.012-0.004-0.02
		c-0.044-0.197-0.097-0.396-0.158-0.596c-0.061-0.2-0.129-0.4-0.206-0.604c-0.006-0.015-0.011-0.029-0.018-0.045
		c-0.005-0.014-0.011-0.029-0.017-0.044c-0.004-0.01-0.008-0.02-0.012-0.029c-0.003-0.01-0.007-0.019-0.011-0.028
		c-0.023-0.059-0.046-0.116-0.071-0.175c-0.025-0.058-0.05-0.116-0.075-0.174c-0.02-0.044-0.04-0.089-0.06-0.134
		c-0.02-0.045-0.041-0.09-0.062-0.135c0,0,0,0,0,0c0-0.002,0-0.002,0-0.002c-0.009-0.018-0.018-0.037-0.028-0.056
		c-0.009-0.019-0.019-0.037-0.029-0.056c-0.003-0.007-0.006-0.012-0.009-0.019c-0.003-0.006-0.006-0.013-0.01-0.019
		c-0.053-0.108-0.108-0.217-0.165-0.326c-0.057-0.108-0.115-0.218-0.175-0.326c-0.009-0.016-0.018-0.03-0.027-0.045
		c-0.009-0.016-0.018-0.029-0.027-0.045c-0.003-0.005-0.006-0.01-0.009-0.016c-0.003-0.004-0.006-0.01-0.009-0.015
		c-0.046-0.081-0.093-0.161-0.141-0.243c-0.048-0.082-0.097-0.163-0.149-0.246c-0.005-0.009-0.011-0.018-0.017-0.027
		c-0.005-0.01-0.011-0.019-0.016-0.027c-0.077-0.121-0.156-0.241-0.239-0.363c-0.082-0.12-0.166-0.241-0.252-0.363
		c-0.03-0.042-0.061-0.084-0.092-0.125c-0.031-0.042-0.063-0.083-0.093-0.125c-0.031-0.043-0.063-0.085-0.094-0.127
		c-0.032-0.043-0.063-0.085-0.096-0.127c-0.001-0.002-0.003-0.006-0.005-0.008c-0.001-0.002-0.003-0.004-0.006-0.007
		c-0.037-0.048-0.074-0.097-0.112-0.145c-0.038-0.049-0.076-0.097-0.115-0.146c-0.008-0.011-0.018-0.021-0.026-0.033
		c-0.009-0.01-0.018-0.021-0.027-0.032c-0.009-0.011-0.017-0.021-0.026-0.032c-0.009-0.011-0.018-0.021-0.027-0.033
		c-0.021-0.026-0.042-0.053-0.064-0.079s-0.043-0.053-0.064-0.079c-0.007-0.008-0.014-0.018-0.021-0.025
		c-0.007-0.008-0.014-0.018-0.021-0.025c-0.016-0.021-0.033-0.04-0.049-0.061c-0.017-0.02-0.033-0.039-0.049-0.059
		c-0.017-0.02-0.034-0.04-0.05-0.061c-0.017-0.02-0.034-0.039-0.051-0.059c-0.01-0.012-0.019-0.021-0.028-0.033
		c-0.01-0.011-0.019-0.021-0.028-0.033c-0.008-0.008-0.015-0.018-0.023-0.025c-0.008-0.01-0.016-0.019-0.023-0.027
		c-0.012-0.014-0.025-0.029-0.037-0.043c-0.013-0.015-0.025-0.029-0.037-0.044c-0.016-0.017-0.031-0.035-0.047-0.054
		c-0.015-0.017-0.031-0.035-0.046-0.053c-0.006-0.007-0.012-0.014-0.019-0.021c-0.006-0.008-0.012-0.015-0.019-0.022
		c-0.06-0.067-0.121-0.136-0.183-0.204c-0.062-0.066-0.124-0.135-0.187-0.203c-0.026-0.029-0.053-0.057-0.08-0.085
		c-0.026-0.028-0.053-0.058-0.08-0.085c-0.008-0.01-0.017-0.019-0.026-0.027c-0.008-0.01-0.017-0.02-0.025-0.027
		c0-0.001-0.001-0.001-0.001-0.002c0,0-0.001-0.001-0.001-0.001c-0.166-0.175-0.335-0.349-0.509-0.524
		c-0.174-0.175-0.354-0.35-0.536-0.525c-0.009-0.008-0.017-0.016-0.026-0.025c-0.009-0.008-0.018-0.016-0.026-0.023
		c-0.002-0.002-0.004-0.004-0.006-0.007c-0.002-0.002-0.005-0.004-0.007-0.005c-0.001-0.002-0.002-0.003-0.003-0.005
		c-0.001-0.001-0.002-0.002-0.004-0.003l0-0.001h0c-0.001-0.001-0.002-0.003-0.003-0.003c-0.001-0.001-0.002-0.002-0.003-0.004
		c-0.003-0.002-0.005-0.004-0.008-0.006c-0.002-0.003-0.005-0.006-0.007-0.008c-0.011-0.011-0.022-0.021-0.034-0.032
		c-0.012-0.011-0.023-0.021-0.035-0.032l0,0c0,0,0,0,0-0.001c-0.011-0.011-0.022-0.021-0.034-0.032
		c-0.011-0.01-0.022-0.021-0.034-0.031c0,0,0-0.001-0.001-0.001c0-0.001,0-0.001-0.001-0.001c-0.006-0.006-0.012-0.012-0.018-0.018
		c-0.006-0.006-0.012-0.012-0.019-0.017c-0.005-0.005-0.011-0.011-0.016-0.016s-0.011-0.011-0.017-0.016
		c-0.022-0.021-0.045-0.042-0.068-0.063c-0.022-0.021-0.045-0.041-0.068-0.063c-0.001-0.001-0.001-0.002-0.002-0.002
		c-0.001-0.001-0.001-0.002-0.002-0.002c-0.003-0.003-0.005-0.005-0.007-0.008c-0.002-0.002-0.005-0.004-0.007-0.006
		c-0.016-0.016-0.033-0.031-0.049-0.045c-0.017-0.016-0.034-0.031-0.05-0.047c-0.017-0.015-0.033-0.029-0.05-0.045
		s-0.034-0.031-0.051-0.046c-0.013-0.011-0.025-0.022-0.038-0.034s-0.026-0.023-0.039-0.034c-0.037-0.034-0.074-0.066-0.111-0.1
		c-0.038-0.033-0.075-0.066-0.113-0.1c-0.001-0.001-0.003-0.003-0.004-0.005c-0.002-0.001-0.003-0.002-0.005-0.004
		c-0.038-0.033-0.076-0.066-0.115-0.1c-0.038-0.034-0.077-0.067-0.116-0.101c-0.001-0.001-0.002-0.001-0.003-0.003
		c-0.001,0-0.002-0.001-0.003-0.002c-0.013-0.012-0.026-0.022-0.04-0.034s-0.026-0.022-0.04-0.034
		c-0.045-0.039-0.089-0.078-0.134-0.117s-0.089-0.078-0.135-0.116c-0.05-0.043-0.101-0.085-0.151-0.128
		c-0.05-0.043-0.101-0.085-0.152-0.127c-0.007-0.006-0.016-0.014-0.023-0.02s-0.016-0.014-0.024-0.02h0
		c0-0.002-0.001-0.002-0.001-0.002c-0.009-0.006-0.017-0.013-0.025-0.02c-0.008-0.006-0.017-0.014-0.024-0.02
		c-0.085-0.069-0.17-0.139-0.256-0.209s-0.172-0.141-0.26-0.21c-0.051-0.041-0.102-0.082-0.153-0.124
		c-0.051-0.041-0.102-0.083-0.154-0.125c-0.002-0.001-0.004-0.003-0.007-0.005c-0.002-0.002-0.004-0.004-0.007-0.006
		c0-0.001,0-0.001-0.001-0.001c-0.001,0-0.001,0-0.001,0c-0.011-0.009-0.021-0.018-0.032-0.025
		c-0.011-0.008-0.021-0.016-0.032-0.024c-0.003-0.003-0.005-0.005-0.008-0.007c-0.003-0.002-0.006-0.004-0.009-0.006
		c-0.009-0.008-0.017-0.014-0.026-0.021c-0.008-0.007-0.017-0.013-0.025-0.02c-0.004-0.003-0.009-0.007-0.013-0.011
		c-0.005-0.003-0.009-0.006-0.013-0.01c-0.011-0.008-0.022-0.017-0.033-0.025c-0.011-0.008-0.022-0.017-0.033-0.025
		c-0.002-0.002-0.004-0.003-0.006-0.004c-0.002-0.002-0.004-0.004-0.006-0.005c-0.052-0.04-0.104-0.079-0.156-0.12
		c-0.053-0.039-0.104-0.078-0.157-0.119c0,0,0,0-0.002,0c0,0,0-0.001-0.001-0.002c-0.013-0.01-0.026-0.02-0.039-0.029
		c-0.014-0.01-0.027-0.02-0.04-0.03c-0.3-0.228-0.608-0.454-0.923-0.681c-0.313-0.227-0.635-0.452-0.961-0.678
		c-0.02-0.014-0.041-0.027-0.061-0.041s-0.041-0.027-0.061-0.041c-0.184-0.127-0.369-0.252-0.556-0.377
		c-0.188-0.126-0.377-0.25-0.568-0.375c-0.016-0.012-0.033-0.022-0.049-0.033c-0.017-0.011-0.033-0.021-0.05-0.032
		c-0.063-0.04-0.126-0.081-0.189-0.122c-0.063-0.039-0.126-0.08-0.19-0.121c-0.059-0.038-0.119-0.076-0.178-0.113
		c-0.06-0.038-0.12-0.076-0.18-0.115c-0.006-0.004-0.013-0.008-0.02-0.012s-0.013-0.008-0.019-0.012
		c-0.006-0.003-0.011-0.006-0.017-0.01c-0.005-0.003-0.011-0.007-0.016-0.011c-0.023-0.015-0.047-0.03-0.071-0.044
		c-0.024-0.015-0.048-0.029-0.071-0.045c-0.015-0.008-0.029-0.018-0.044-0.026s-0.029-0.018-0.043-0.026
		c-0.019-0.012-0.038-0.023-0.057-0.035c-0.02-0.014-0.039-0.024-0.058-0.037c-0.052-0.031-0.103-0.063-0.155-0.094
		c-0.051-0.031-0.103-0.063-0.155-0.095c0-0.001,0-0.001,0-0.001c0,0,0,0,0,0c-0.006-0.004-0.013-0.008-0.019-0.012
		c-0.006-0.004-0.012-0.007-0.018-0.012c-0.04-0.023-0.079-0.047-0.117-0.07c-0.04-0.023-0.079-0.047-0.118-0.07
		c-0.111-0.066-0.222-0.134-0.334-0.199c-0.112-0.066-0.225-0.133-0.338-0.198c-0.006-0.003-0.012-0.007-0.018-0.011
		c-0.006-0.003-0.012-0.006-0.018-0.01c-0.009-0.006-0.019-0.012-0.028-0.016c-0.009-0.006-0.019-0.012-0.028-0.018
		c-0.01-0.006-0.021-0.012-0.032-0.018c-0.01-0.006-0.021-0.012-0.032-0.018c-0.005-0.004-0.009-0.006-0.014-0.009
		c-0.005-0.003-0.009-0.005-0.015-0.008c-0.015-0.009-0.03-0.019-0.045-0.026c-0.016-0.01-0.031-0.019-0.046-0.027
		c-0.09-0.053-0.179-0.104-0.268-0.156c-0.088-0.053-0.178-0.104-0.27-0.157c-0.008-0.004-0.015-0.009-0.023-0.013
		c-0.008-0.005-0.016-0.01-0.023-0.014c-0.024-0.014-0.048-0.027-0.072-0.04c-0.024-0.014-0.048-0.026-0.071-0.038
		c-0.096-0.056-0.194-0.11-0.291-0.165c-0.097-0.056-0.196-0.109-0.294-0.163c-0.033-0.018-0.065-0.037-0.098-0.055
		s-0.066-0.036-0.099-0.055c-0.001,0-0.003,0-0.004-0.001s-0.002-0.001-0.003-0.002c-0.001-0.001-0.003-0.001-0.004-0.003
		c-0.001,0-0.003-0.002-0.004-0.002c-0.063-0.035-0.126-0.068-0.189-0.104c-0.063-0.034-0.126-0.068-0.19-0.103
		c-0.002-0.001-0.003-0.002-0.005-0.003c-0.002-0.001-0.003-0.002-0.005-0.003c-0.032-0.017-0.063-0.033-0.094-0.05
		c-0.032-0.018-0.063-0.035-0.095-0.052c-0.084-0.044-0.169-0.089-0.254-0.134s-0.17-0.09-0.255-0.135
		c-0.088-0.045-0.176-0.092-0.264-0.139s-0.177-0.093-0.266-0.14c-0.052-0.026-0.105-0.055-0.158-0.081
		c-0.053-0.028-0.105-0.056-0.159-0.083c-0.118-0.06-0.236-0.119-0.355-0.179c-0.12-0.061-0.239-0.119-0.358-0.18
		c-0.422-0.21-0.85-0.418-1.283-0.625c-0.433-0.207-0.871-0.412-1.315-0.615c-0.029-0.014-0.059-0.027-0.088-0.041
		s-0.059-0.027-0.089-0.041c-0.074-0.033-0.148-0.066-0.222-0.1c-0.074-0.033-0.148-0.066-0.223-0.102
		c-0.348-0.155-0.698-0.311-1.051-0.465c-0.353-0.153-0.709-0.307-1.069-0.455c-0.017-0.009-0.035-0.016-0.053-0.023
		c-0.018-0.007-0.036-0.014-0.054-0.021c-0.337-0.141-0.677-0.28-1.021-0.417c-0.343-0.138-0.688-0.273-1.036-0.409
		c-0.098-0.038-0.197-0.076-0.295-0.114s-0.198-0.076-0.297-0.115c-0.361-0.137-0.724-0.274-1.089-0.41
		c-0.365-0.135-0.732-0.269-1.104-0.4c-0.004-0.002-0.009-0.003-0.013-0.005s-0.009-0.003-0.014-0.005
		c-0.001-0.002-0.002-0.002-0.004-0.002c-0.001-0.001-0.003-0.002-0.005-0.002c-0.217-1.076-0.384-2.177-0.497-3.299
		c-0.114-1.123-0.173-2.268-0.173-3.436c0-0.01,0.001-0.02,0.001-0.029c0.001-0.01,0.002-0.02,0.002-0.029
		c0.001-0.316,0.011-0.631,0.027-0.942c0.017-0.312,0.04-0.622,0.067-0.931c0.008-0.088,0.017-0.176,0.026-0.263
		s0.019-0.176,0.029-0.264c0.034-0.294,0.071-0.586,0.115-0.876c0.044-0.291,0.093-0.578,0.151-0.865
		c0.004-0.023,0.007-0.047,0.012-0.07c0.003-0.023,0.007-0.047,0.011-0.07c0.065-0.313,0.138-0.624,0.218-0.932
		c0.08-0.308,0.167-0.612,0.258-0.914c0.019-0.064,0.038-0.127,0.058-0.189c0.02-0.063,0.04-0.125,0.06-0.188
		c0.044-0.139,0.09-0.276,0.138-0.414c0.047-0.137,0.096-0.273,0.145-0.41c0,0,0,0,0,0l0,0c0.014-0.039,0.028-0.078,0.042-0.117
		c0.015-0.039,0.029-0.076,0.043-0.115c0,0,0,0,0,0l0,0c0.015-0.039,0.029-0.078,0.044-0.116c0.015-0.038,0.029-0.077,0.045-0.116
		c0.008-0.019,0.015-0.037,0.022-0.057s0.015-0.039,0.023-0.059c0.001-0.002,0.002-0.005,0.003-0.008
		c0.001-0.002,0.002-0.006,0.003-0.008c0.01-0.023,0.019-0.047,0.028-0.072c0.01-0.023,0.02-0.047,0.029-0.07l0,0l0,0
		c0.145-0.355,0.298-0.707,0.462-1.053c0.163-0.346,0.335-0.686,0.518-1.021c0-0.001,0.001-0.002,0.002-0.003
		c0-0.001,0.001-0.001,0.001-0.003c0.958-1.775,2.157-3.402,3.551-4.832c1.395-1.431,2.987-2.666,4.734-3.655
		c-1.949-1.974-3.528-4.331-4.619-6.96s-1.695-5.529-1.695-8.59h-0.014h-0.015c0-2.04,0.416-4.114,1.21-6.055
		c0.794-1.941,1.966-3.75,3.478-5.261c1.512-1.512,3.272-2.685,5.188-3.479c1.917-0.795,3.99-1.211,6.128-1.211
		c2.137,0,4.21,0.416,6.127,1.21c1.917,0.794,3.677,1.966,5.189,3.478s2.684,3.282,3.478,5.208c0.794,1.926,1.21,4.008,1.21,6.145
		c0,0.331-0.013,0.704-0.036,1.06c-0.022,0.337-0.055,0.658-0.093,0.908h-5.6c0,3.21,3.589,5.812,8.016,5.812
		s8.017-2.602,8.017-5.812h-5.553c-0.039-0.25-0.071-0.571-0.094-0.908c-0.023-0.355-0.035-0.729-0.035-1.06
		c0-2.136,0.416-4.218,1.21-6.145c0.794-1.926,1.966-3.696,3.478-5.208s3.272-2.684,5.189-3.478c1.916-0.794,3.99-1.21,6.127-1.21
		c2.138,0,4.211,0.416,6.127,1.211c1.918,0.794,3.678,1.967,5.189,3.479c1.512,1.511,2.684,3.32,3.478,5.261
		c0.794,1.941,1.21,4.015,1.21,6.055h-0.014h-0.015c0,3.061-0.604,5.961-1.694,8.59c-1.092,2.629-2.67,4.986-4.619,6.96
		c1.747,0.989,3.34,2.224,4.734,3.655c1.395,1.43,2.592,3.057,3.551,4.832c0,0.002,0.001,0.002,0.002,0.003
		c0,0.001,0,0.002,0.001,0.003c0.183,0.336,0.354,0.676,0.519,1.021c0.163,0.346,0.316,0.697,0.461,1.053l0,0l0,0
		c0.01,0.023,0.02,0.047,0.029,0.07c0.01,0.025,0.02,0.049,0.029,0.072c0,0.002,0.002,0.006,0.002,0.008
		c0.002,0.003,0.003,0.006,0.004,0.008c0.008,0.02,0.016,0.039,0.023,0.059s0.014,0.038,0.022,0.057
		c0.015,0.039,0.03,0.078,0.044,0.116c0.016,0.038,0.03,0.077,0.045,0.116l0,0l0,0c0.015,0.039,0.029,0.076,0.043,0.115
		c0.016,0.039,0.029,0.078,0.043,0.117l0,0c0,0,0,0,0.001,0c0.05,0.137,0.099,0.273,0.146,0.41c0.047,0.138,0.092,0.275,0.137,0.414
		c0.021,0.063,0.041,0.125,0.061,0.188s0.039,0.125,0.057,0.189c0.092,0.302,0.18,0.606,0.258,0.914
		c0.081,0.308,0.154,0.618,0.219,0.932c0.004,0.023,0.008,0.047,0.012,0.07s0.008,0.047,0.012,0.07
		c0.058,0.287,0.107,0.574,0.15,0.865c0.044,0.29,0.082,0.582,0.115,0.876c0.01,0.088,0.02,0.177,0.029,0.264
		s0.018,0.175,0.025,0.263c0.027,0.309,0.051,0.619,0.068,0.931c0.016,0.312,0.025,0.626,0.026,0.942c0,0.01,0.001,0.02,0.001,0.029
		c0.001,0.01,0.002,0.02,0.002,0.029c0,1.168-0.059,2.313-0.172,3.436c-0.113,1.122-0.281,2.223-0.498,3.299
		c-0.002,0-0.003,0.001-0.004,0.002c-0.002,0-0.004,0-0.006,0.002c-0.004,0.002-0.008,0.003-0.014,0.005
		c-0.004,0.002-0.008,0.003-0.013,0.005c-0.37,0.132-0.737,0.266-1.103,0.4c-0.365,0.136-0.729,0.273-1.09,0.41
		c-0.1,0.039-0.197,0.077-0.297,0.115c-0.098,0.038-0.197,0.076-0.295,0.114c-0.348,0.136-0.693,0.271-1.035,0.409
		c-0.344,0.137-0.684,0.276-1.021,0.417c-0.018,0.007-0.035,0.014-0.053,0.021c-0.019,0.008-0.037,0.015-0.055,0.023
		c-0.359,0.148-0.715,0.302-1.068,0.455c-0.354,0.154-0.703,0.31-1.051,0.465c-0.075,0.035-0.149,0.068-0.224,0.102
		c-0.073,0.033-0.147,0.066-0.222,0.1c-0.029,0.014-0.06,0.027-0.089,0.041c-0.03,0.014-0.06,0.027-0.089,0.041
		c-0.443,0.203-0.882,0.408-1.314,0.615c-0.434,0.207-0.86,0.415-1.283,0.625c-0.119,0.061-0.238,0.119-0.357,0.18
		c-0.119,0.06-0.238,0.119-0.355,0.179c-0.054,0.027-0.106,0.055-0.159,0.083c-0.053,0.026-0.105,0.055-0.158,0.081
		c-0.09,0.047-0.178,0.093-0.266,0.14s-0.176,0.094-0.264,0.139c-0.085,0.045-0.171,0.09-0.255,0.135
		c-0.085,0.045-0.17,0.09-0.254,0.134c-0.031,0.017-0.063,0.034-0.095,0.052c-0.031,0.017-0.063,0.033-0.095,0.05
		c-0.001,0.001-0.002,0.002-0.004,0.003s-0.004,0.002-0.006,0.003c-0.063,0.034-0.127,0.068-0.189,0.103
		c-0.063,0.035-0.127,0.068-0.189,0.104c-0.002,0-0.004,0.002-0.005,0.002c-0.001,0.002-0.003,0.002-0.004,0.003
		s-0.003,0.001-0.003,0.002c-0.002,0.001-0.004,0.001-0.004,0.001c-0.033,0.019-0.066,0.037-0.1,0.055
		c-0.032,0.018-0.064,0.037-0.098,0.055c-0.099,0.054-0.196,0.107-0.294,0.163c-0.098,0.055-0.194,0.109-0.291,0.165
		c-0.024,0.012-0.048,0.024-0.071,0.038c-0.023,0.013-0.049,0.026-0.072,0.04c-0.007,0.004-0.016,0.009-0.023,0.014
		c-0.008,0.004-0.016,0.009-0.023,0.013c-0.092,0.053-0.181,0.104-0.27,0.157c-0.09,0.052-0.178,0.104-0.268,0.156
		c-0.016,0.009-0.031,0.018-0.046,0.027c-0.015,0.008-0.03,0.018-0.046,0.026c-0.004,0.003-0.009,0.005-0.014,0.008
		c-0.004,0.003-0.01,0.005-0.014,0.009c-0.011,0.006-0.021,0.012-0.031,0.018c-0.012,0.006-0.021,0.012-0.032,0.018
		c-0.009,0.006-0.019,0.012-0.028,0.018c-0.009,0.004-0.018,0.01-0.027,0.016c-0.006,0.004-0.012,0.007-0.018,0.01
		c-0.007,0.004-0.012,0.008-0.018,0.011c-0.113,0.065-0.227,0.132-0.338,0.198c-0.113,0.065-0.225,0.133-0.335,0.199
		c-0.04,0.023-0.078,0.047-0.118,0.07c-0.039,0.023-0.077,0.047-0.117,0.07c-0.006,0.005-0.012,0.008-0.018,0.012
		s-0.013,0.008-0.019,0.012c-0.001,0-0.001,0-0.001,0c-0.001,0-0.001,0-0.001,0.001c-0.052,0.031-0.103,0.063-0.155,0.095
		c-0.051,0.031-0.104,0.063-0.154,0.094c-0.02,0.013-0.039,0.023-0.058,0.037c-0.019,0.012-0.038,0.023-0.058,0.035
		c-0.014,0.009-0.029,0.018-0.043,0.026c-0.016,0.009-0.029,0.019-0.044,0.026c-0.023,0.016-0.048,0.03-0.071,0.045
		c-0.023,0.014-0.048,0.029-0.071,0.044c-0.005,0.004-0.011,0.008-0.017,0.011c-0.004,0.004-0.01,0.007-0.016,0.01
		c-0.006,0.004-0.013,0.008-0.02,0.012c-0.006,0.004-0.013,0.008-0.02,0.012c-0.061,0.039-0.119,0.077-0.18,0.115
		c-0.059,0.037-0.119,0.075-0.178,0.113c-0.064,0.041-0.127,0.082-0.189,0.121c-0.064,0.041-0.127,0.082-0.189,0.122
		c-0.018,0.011-0.033,0.021-0.051,0.032c-0.016,0.011-0.033,0.021-0.049,0.033c-0.191,0.125-0.381,0.249-0.568,0.375
		c-0.188,0.125-0.373,0.25-0.556,0.377c-0.021,0.014-0.041,0.027-0.062,0.041c-0.02,0.014-0.041,0.027-0.061,0.041
		c-0.326,0.226-0.647,0.451-0.961,0.678c-0.314,0.227-0.623,0.453-0.923,0.681c-0.013,0.011-0.026,0.021-0.04,0.03
		s-0.026,0.02-0.04,0.029c0,0.001-0.001,0.002-0.001,0.002h-0.001c-0.053,0.041-0.104,0.08-0.157,0.119
		c-0.053,0.041-0.104,0.08-0.156,0.12c-0.003,0.001-0.004,0.003-0.006,0.005c-0.002,0.001-0.004,0.002-0.007,0.004
		c-0.011,0.009-0.022,0.018-0.033,0.025c-0.011,0.009-0.022,0.018-0.032,0.025c-0.005,0.004-0.01,0.007-0.014,0.01
		c-0.004,0.004-0.009,0.008-0.014,0.011c-0.008,0.007-0.018,0.013-0.025,0.02s-0.018,0.013-0.025,0.021
		c-0.003,0.002-0.006,0.004-0.009,0.006s-0.005,0.004-0.009,0.007c-0.01,0.009-0.021,0.017-0.031,0.024
		c-0.012,0.008-0.021,0.017-0.032,0.025h-0.001c0,0,0,0,0,0.001c-0.003,0.002-0.005,0.004-0.008,0.006
		c-0.002,0.002-0.004,0.004-0.007,0.005c-0.052,0.042-0.104,0.084-0.155,0.125c-0.051,0.042-0.102,0.083-0.152,0.124
		c-0.088,0.069-0.174,0.14-0.26,0.21s-0.172,0.14-0.256,0.209c-0.008,0.006-0.016,0.014-0.024,0.02
		c-0.009,0.007-0.017,0.014-0.024,0.02c0,0-0.001,0-0.001,0.002c-0.001,0-0.001,0-0.001,0c-0.008,0.006-0.016,0.014-0.024,0.02
		c-0.007,0.006-0.016,0.014-0.023,0.02c-0.051,0.042-0.101,0.084-0.151,0.127s-0.102,0.085-0.151,0.128
		c-0.046,0.038-0.091,0.077-0.135,0.116s-0.089,0.078-0.134,0.117c-0.014,0.012-0.026,0.022-0.039,0.034
		c-0.014,0.012-0.027,0.022-0.041,0.034c0,0.001-0.001,0.002-0.002,0.002c-0.001,0.002-0.002,0.002-0.004,0.003
		c-0.038,0.033-0.076,0.066-0.115,0.101c-0.038,0.033-0.076,0.066-0.114,0.1c-0.002,0.002-0.003,0.003-0.005,0.004
		c-0.002,0.002-0.003,0.004-0.004,0.005c-0.039,0.033-0.076,0.066-0.113,0.1s-0.074,0.065-0.111,0.1
		c-0.014,0.011-0.026,0.022-0.039,0.034c-0.012,0.012-0.025,0.023-0.038,0.034c-0.017,0.015-0.034,0.03-0.05,0.046
		c-0.018,0.016-0.033,0.03-0.051,0.045c-0.017,0.016-0.033,0.031-0.05,0.047c-0.017,0.014-0.033,0.029-0.05,0.045
		c-0.002,0.002-0.004,0.004-0.007,0.006c-0.003,0.003-0.005,0.005-0.007,0.008c-0.002,0-0.002,0.001-0.003,0.002
		c-0.001,0-0.001,0.001-0.002,0.002c-0.022,0.021-0.046,0.042-0.068,0.063c-0.022,0.021-0.045,0.043-0.067,0.063
		c-0.006,0.005-0.012,0.011-0.018,0.016c-0.004,0.005-0.01,0.011-0.016,0.016s-0.012,0.011-0.019,0.017
		c-0.006,0.006-0.013,0.012-0.018,0.018c-0.001,0-0.001,0-0.001,0.001c-0.001,0-0.001,0.001-0.002,0.001
		c-0.011,0.011-0.021,0.021-0.033,0.031c-0.012,0.012-0.022,0.021-0.033,0.032c-0.001,0.001-0.001,0.001-0.001,0.001s0,0-0.001,0
		c-0.011,0.011-0.021,0.021-0.033,0.032s-0.023,0.021-0.035,0.032c-0.002,0.002-0.004,0.005-0.006,0.008
		c-0.003,0.002-0.006,0.004-0.008,0.006s-0.002,0.003-0.004,0.004c0,0-0.002,0.002-0.003,0.003c-0.001,0-0.001,0-0.001,0v0.001
		c-0.002,0.001-0.002,0.002-0.004,0.003c-0.002,0.002-0.002,0.003-0.004,0.005c-0.002,0.001-0.004,0.003-0.006,0.005
		c-0.002,0.003-0.004,0.005-0.007,0.007c-0.009,0.008-0.017,0.016-0.026,0.023c-0.008,0.01-0.018,0.018-0.025,0.025
		c-0.184,0.176-0.361,0.351-0.536,0.525c-0.174,0.176-0.344,0.35-0.509,0.524c-0.001,0-0.001,0.001-0.002,0.001
		c0,0.001,0,0.001,0,0.002c-0.01,0.008-0.018,0.018-0.025,0.027c-0.009,0.009-0.018,0.018-0.026,0.027
		c-0.026,0.027-0.054,0.057-0.079,0.085c-0.027,0.028-0.054,0.056-0.08,0.085c-0.063,0.068-0.125,0.137-0.187,0.203
		c-0.062,0.068-0.122,0.137-0.183,0.204c-0.006,0.008-0.013,0.015-0.019,0.022c-0.007,0.008-0.013,0.015-0.019,0.021
		c-0.017,0.018-0.031,0.036-0.047,0.053c-0.016,0.019-0.031,0.037-0.047,0.054c-0.013,0.015-0.025,0.029-0.037,0.044
		c-0.014,0.014-0.025,0.029-0.038,0.043c-0.007,0.009-0.015,0.018-0.022,0.027c-0.008,0.008-0.016,0.018-0.023,0.025
		c-0.01,0.012-0.018,0.022-0.027,0.033c-0.01,0.012-0.02,0.021-0.029,0.033c-0.016,0.02-0.033,0.039-0.05,0.059
		c-0.017,0.021-0.033,0.041-0.05,0.061c-0.018,0.02-0.033,0.039-0.051,0.059c-0.016,0.021-0.032,0.04-0.049,0.061
		c-0.007,0.008-0.014,0.018-0.021,0.025c-0.007,0.008-0.014,0.018-0.021,0.025c-0.021,0.026-0.043,0.053-0.064,0.079
		s-0.042,0.053-0.063,0.079c-0.01,0.012-0.018,0.022-0.027,0.033c-0.009,0.011-0.018,0.021-0.026,0.032s-0.018,0.022-0.026,0.032
		c-0.01,0.012-0.018,0.022-0.025,0.033c-0.039,0.049-0.078,0.097-0.115,0.146c-0.038,0.048-0.075,0.097-0.112,0.145
		c-0.002,0.003-0.003,0.005-0.005,0.007s-0.004,0.006-0.006,0.008c-0.032,0.042-0.064,0.084-0.096,0.127
		c-0.031,0.042-0.063,0.084-0.094,0.127c-0.03,0.042-0.062,0.083-0.093,0.125c-0.03,0.041-0.062,0.083-0.092,0.125
		c-0.087,0.122-0.171,0.243-0.253,0.363c-0.082,0.122-0.161,0.242-0.238,0.363c-0.005,0.009-0.01,0.018-0.016,0.027
		s-0.012,0.019-0.017,0.027c-0.052,0.083-0.102,0.164-0.149,0.246c-0.047,0.082-0.094,0.162-0.141,0.243
		c-0.002,0.005-0.006,0.011-0.008,0.015c-0.004,0.006-0.007,0.011-0.01,0.016c-0.009,0.016-0.018,0.029-0.027,0.045
		c-0.01,0.015-0.018,0.029-0.025,0.045c-0.062,0.108-0.119,0.218-0.177,0.326c-0.056,0.109-0.11,0.218-0.165,0.326
		c-0.002,0.006-0.006,0.013-0.009,0.019c-0.003,0.007-0.007,0.012-0.01,0.019c-0.009,0.019-0.019,0.037-0.028,0.056
		s-0.02,0.038-0.027,0.056c-0.001,0-0.001,0-0.001,0.002c-0.001,0-0.001,0-0.001,0c-0.021,0.045-0.041,0.09-0.062,0.135
		s-0.04,0.09-0.06,0.134c-0.025,0.058-0.051,0.116-0.075,0.174c-0.024,0.059-0.048,0.116-0.071,0.175
		c-0.004,0.01-0.008,0.019-0.012,0.028s-0.007,0.02-0.012,0.029c-0.005,0.015-0.011,0.03-0.017,0.044
		c-0.006,0.016-0.011,0.03-0.017,0.045c-0.077,0.203-0.146,0.403-0.206,0.604s-0.113,0.398-0.157,0.596
		c-0.002,0.008-0.004,0.014-0.005,0.02c-0.001,0.007-0.003,0.013-0.005,0.02c-0.01,0.045-0.02,0.089-0.029,0.134
		c-0.011,0.044-0.021,0.089-0.031,0.133c-0.004,0.02-0.008,0.039-0.012,0.06c-0.003,0.019-0.006,0.038-0.01,0.058
		c-0.004,0.028-0.008,0.056-0.012,0.084c-0.003,0.028-0.006,0.055-0.01,0.083c-0.006,0.041-0.012,0.082-0.016,0.124
		c-0.006,0.041-0.01,0.083-0.014,0.124c0,0.006-0.001,0.012-0.002,0.018c0,0.006-0.001,0.012-0.002,0.018
		c0,0.012-0.002,0.021-0.002,0.033c-0.002,0.01-0.002,0.021-0.004,0.031c0,0.006,0,0.012-0.002,0.017c0,0.006,0,0.011-0.002,0.017
		c0,0.009-0.001,0.017-0.002,0.024c-0.002,0.009-0.002,0.017-0.003,0.024c-0.001,0.01-0.003,0.021-0.005,0.031
		c0,0.01-0.002,0.02-0.002,0.03c0,0.001,0,0.001,0,0.002s0,0.001,0,0.001c-0.001,0.004-0.001,0.006-0.001,0.01
		c-0.001,0.002-0.001,0.006-0.001,0.008c0,0.008,0,0.015-0.002,0.022c0,0.007,0,0.015,0,0.021c0,0.003,0,0.005,0,0.008
		c-0.001,0.002-0.001,0.005-0.001,0.007c-0.001,0.021-0.002,0.043-0.003,0.064c0,0.021-0.001,0.043-0.002,0.064
		c0,0.031-0.001,0.063-0.001,0.095c-0.001,0.03-0.001,0.063-0.001,0.094v0.005v0.004c0,0.005,0,0.01,0,0.014s0,0.009,0,0.014
		c0,0.014,0,0.026,0,0.04c0,0.013,0,0.026,0,0.039c0,0.014,0,0.026,0,0.04c0,0.013,0,0.025,0,0.039c0,0.01,0,0.018,0,0.025
		c0,0.01,0,0.018,0,0.026v0.001l0,0c0,0.009,0,0.018,0,0.026s0.001,0.018,0.001,0.026c0.005,0.115,0.013,0.23,0.024,0.344
		c0.012,0.114,0.026,0.227,0.043,0.34v0.002c0.001,0,0.001,0.001,0.001,0.002s0.001,0.002,0.001,0.004v0.002
		c0.001,0.006,0.002,0.012,0.002,0.018c0.002,0.006,0.002,0.013,0.004,0.018c0.002,0.018,0.005,0.033,0.008,0.05
		c0.002,0.017,0.004,0.032,0.008,0.049c0.007,0.042,0.015,0.084,0.023,0.126c0.008,0.043,0.016,0.084,0.025,0.126
		c0,0.002,0,0.004,0,0.006c0.001,0.001,0.002,0.003,0.002,0.005c0.002,0.007,0.003,0.013,0.004,0.02
		c0.002,0.007,0.003,0.013,0.004,0.02c0.002,0.002,0.002,0.004,0.002,0.006s0.001,0.003,0.002,0.005
		c0.002,0.012,0.005,0.022,0.008,0.034s0.006,0.023,0.008,0.034c0.014,0.053,0.027,0.105,0.041,0.157
		c0.015,0.053,0.03,0.105,0.047,0.157c0.004,0.013,0.008,0.024,0.012,0.037s0.008,0.024,0.013,0.037s0.009,0.024,0.013,0.036
		c0.004,0.013,0.009,0.025,0.013,0.037c0,0,0,0,0.001,0v0.001c0.008,0.024,0.018,0.048,0.026,0.071s0.018,0.047,0.026,0.069
		c0.005,0.012,0.01,0.023,0.015,0.035c0.005,0.013,0.01,0.023,0.015,0.034c0.004,0.009,0.008,0.018,0.012,0.027
		c0.003,0.008,0.008,0.018,0.011,0.025c0.001,0.003,0.003,0.006,0.003,0.008c0.002,0.003,0.002,0.006,0.004,0.008
		c0,0,0,0.001,0.001,0.002c0,0,0,0,0,0.001c0.011,0.022,0.02,0.044,0.029,0.065c0.011,0.021,0.021,0.043,0.03,0.064v0.001v0.001l0,0
		h0.001h0.001c0,0.001,0,0.002,0,0.002c0.014,0.025,0.028,0.051,0.043,0.076s0.029,0.051,0.044,0.076
		c0.021,0.041,0.044,0.082,0.066,0.122c0.022,0.039,0.046,0.079,0.07,0.117c0.026,0.038,0.053,0.077,0.08,0.114
		c0.026,0.037,0.054,0.075,0.083,0.111c0.002,0.003,0.004,0.007,0.007,0.01s0.005,0.007,0.008,0.01l0,0c0.001,0,0.001,0,0.001,0
		c0.029,0.036,0.059,0.072,0.09,0.107c0.031,0.034,0.061,0.068,0.092,0.102c0.03,0.032,0.06,0.063,0.09,0.093
		c0.029,0.03,0.061,0.06,0.092,0.089c0.001,0,0.001,0,0.002,0c0,0,0,0.001,0,0.002c0.004,0.002,0.007,0.006,0.011,0.009
		c0.003,0.003,0.007,0.006,0.011,0.009c0.002,0.002,0.003,0.003,0.005,0.005c0.001,0.001,0.003,0.003,0.005,0.005
		c0.001,0,0.001,0,0.002,0l0,0c0.021,0.02,0.043,0.037,0.066,0.057c0.021,0.018,0.045,0.035,0.066,0.054
		c0.007,0.005,0.012,0.009,0.018,0.013s0.012,0.01,0.018,0.014c0.002,0,0.002,0.002,0.003,0.002
		c0.001,0.002,0.002,0.002,0.003,0.002c0.011,0.008,0.021,0.016,0.032,0.024c0.011,0.008,0.021,0.016,0.032,0.023
		c0.002,0.001,0.003,0.002,0.005,0.003c0.001,0.001,0.002,0.002,0.003,0.004c0.109,0.076,0.225,0.146,0.345,0.212
		c0.121,0.064,0.247,0.122,0.377,0.176c0.015,0.006,0.028,0.011,0.043,0.017c0.015,0.005,0.029,0.01,0.043,0.016
		c0.032,0.013,0.065,0.025,0.099,0.037c0.031,0.012,0.064,0.023,0.098,0.035c0.034,0.011,0.068,0.021,0.102,0.033
		c0.033,0.01,0.068,0.021,0.103,0.031c0.069,0.02,0.14,0.039,0.21,0.056c0.072,0.018,0.145,0.034,0.219,0.049
		c0.014,0.002,0.027,0.005,0.041,0.009c0.013,0.003,0.025,0.006,0.04,0.01c0.001,0,0.002,0.001,0.003,0.001
		c0,0.001,0.002,0.001,0.002,0.001c0.003,0,0.006,0,0.008,0.001s0.005,0.001,0.007,0.001c0.003,0.001,0.006,0.002,0.009,0.002
		c0.002,0,0.004,0,0.008,0.001c0.006,0.001,0.013,0.003,0.02,0.003c0.008,0.002,0.015,0.002,0.021,0.003
		c0.047,0.009,0.096,0.016,0.143,0.023c0.049,0.007,0.098,0.015,0.146,0.021c0.098,0.012,0.199,0.022,0.302,0.031
		s0.207,0.016,0.313,0.021l0,0h0.001c0.01,0.001,0.02,0.002,0.029,0.002s0.02,0.001,0.029,0.002c0.066,0.003,0.131,0.007,0.195,0.01
		c0.066,0.004,0.133,0.007,0.201,0.008h0.068h0.07c0.07,0,0.143,0,0.215,0s0.145-0.002,0.219-0.003c0.002,0,0.004,0,0.007,0
		s0.005,0,0.007,0c0.031-0.001,0.063-0.001,0.095-0.003c0.032-0.002,0.063-0.002,0.096-0.004h0.015h0.014h0.008h0.008
		c0.004-0.001,0.008-0.001,0.012-0.002c0.003,0,0.008,0,0.011,0c0.001,0,0.003,0,0.003,0c0.001,0,0.002,0,0.004,0
		c0.011-0.001,0.021-0.002,0.033-0.003s0.022-0.003,0.033-0.003c0.168-0.008,0.34-0.018,0.517-0.031
		c0.175-0.014,0.354-0.028,0.536-0.046c0.06-0.006,0.119-0.012,0.18-0.019c0.06-0.006,0.119-0.012,0.181-0.019
		c0.183-0.02,0.369-0.04,0.558-0.063c0.188-0.022,0.38-0.048,0.576-0.074c0.043-0.007,0.088-0.014,0.133-0.02
		s0.09-0.013,0.135-0.019c0.186-0.026,0.374-0.056,0.565-0.085c0.19-0.029,0.385-0.061,0.581-0.092
		c0.075-0.012,0.15-0.023,0.226-0.035s0.149-0.024,0.226-0.037c0.222-0.036,0.445-0.072,0.671-0.111
		c0.227-0.037,0.456-0.077,0.689-0.117c0,0-0.001,0-0.001,0.001v0.001c-0.002,0-0.002,0.001-0.003,0.002s-0.001,0.002-0.001,0.002
		c2.174-0.373,4.611-0.812,7.268-1.148c2.657-0.336,5.535-0.572,8.592-0.546c0.141,0.919,0.249,1.848,0.322,2.787
		c0.074,0.938,0.113,1.888,0.113,2.845c0,1.023-0.044,2.037-0.129,3.037c-0.084,1.002-0.209,1.99-0.371,2.967
		c-0.006,0.036-0.012,0.07-0.018,0.105s-0.012,0.07-0.018,0.104c-0.001,0.007-0.002,0.015-0.002,0.021c0,0.008,0,0.015,0,0.021
		c0,0.242,0.098,0.461,0.256,0.619c0.159,0.158,0.377,0.256,0.619,0.256c0.059,0,0.114-0.006,0.169-0.018
		c0.054-0.012,0.106-0.027,0.157-0.048c0.012-0.007,0.022-0.014,0.033-0.021c0.012-0.006,0.022-0.014,0.034-0.021
		c0.004-0.002,0.007-0.005,0.011-0.007s0.008-0.004,0.012-0.007c0.002-0.001,0.004-0.003,0.006-0.003
		c0.002-0.002,0.004-0.004,0.006-0.005c0.011-0.007,0.021-0.013,0.031-0.019c0.01-0.007,0.02-0.014,0.03-0.02
		c1.862-1.164,3.667-2.411,5.407-3.736c1.742-1.326,3.42-2.73,5.028-4.21c0.11-0.101,0.22-0.202,0.329-0.304
		s0.219-0.203,0.326-0.305c0.4-0.423,0.746-0.898,1.023-1.414c0.277-0.517,0.488-1.074,0.621-1.662
		c0.027-0.178,0.053-0.355,0.076-0.533c0.024-0.179,0.048-0.357,0.07-0.535c0.206-1.639,0.32-3.289,0.337-4.943
		C121.864,111.669,121.784,110.011,121.604,108.359z"/>
	<path fill="#E30613" d="M71.034,132.125c0.604-0.241,3.358-1.364,7.145-3.375c3.786-2.01,8.603-4.906,13.331-8.691v-0.001
		c0-0.001,0.001-0.001,0.001-0.001c-0.233,0.04-0.463,0.08-0.689,0.117c-0.226,0.039-0.449,0.075-0.671,0.111
		c-0.076,0.013-0.15,0.025-0.226,0.037s-0.15,0.023-0.226,0.035c-0.196,0.031-0.391,0.063-0.581,0.092
		c-0.191,0.029-0.38,0.059-0.565,0.085c-0.045,0.006-0.09,0.013-0.135,0.019s-0.09,0.013-0.133,0.02
		c-0.196,0.026-0.388,0.052-0.576,0.074c-0.188,0.023-0.375,0.044-0.558,0.063c-0.062,0.007-0.121,0.013-0.181,0.019
		c-0.061,0.007-0.12,0.013-0.18,0.019c-0.182,0.018-0.361,0.032-0.536,0.046c-0.177,0.014-0.349,0.023-0.517,0.031
		c-0.011,0-0.021,0.002-0.033,0.004c-0.012,0.001-0.022,0.002-0.033,0.002c-0.006,0-0.01,0.001-0.015,0.001
		c-0.005,0.001-0.01,0.001-0.015,0.001h-0.008h-0.008c-0.037,0.002-0.073,0.003-0.109,0.004c-0.037,0.002-0.073,0.002-0.109,0.003
		c-0.002,0-0.004,0-0.007,0s-0.005,0-0.007,0c-0.074,0.002-0.146,0.003-0.219,0.003c-0.072,0.001-0.145,0-0.215,0h-0.07h-0.068
		h-0.016h-0.015c-0.063-0.001-0.124-0.004-0.186-0.008c-0.06-0.003-0.12-0.007-0.181-0.01c-0.01-0.001-0.02-0.002-0.029-0.002
		s-0.02-0.001-0.029-0.002h-0.001l0,0c-0.03-0.001-0.061-0.002-0.091-0.004c-0.03,0-0.06-0.003-0.089-0.006
		c-0.019-0.001-0.038-0.002-0.058-0.003c-0.019-0.001-0.038-0.003-0.058-0.005c-0.054-0.004-0.108-0.01-0.161-0.016
		c-0.054-0.006-0.106-0.012-0.158-0.02c-0.057-0.007-0.113-0.014-0.168-0.022s-0.109-0.018-0.162-0.027c-0.001,0-0.002,0-0.002,0
		l0,0c-0.003-0.001-0.006-0.001-0.008-0.001s-0.004-0.001-0.007-0.002c-0.002,0-0.005,0-0.007-0.001s-0.005-0.001-0.008-0.001
		c0,0-0.002,0-0.002-0.001c-0.001,0-0.002-0.001-0.003-0.001c-0.015-0.003-0.026-0.006-0.04-0.01
		c-0.014-0.002-0.027-0.006-0.041-0.009c-0.074-0.015-0.146-0.03-0.219-0.048c-0.07-0.018-0.141-0.037-0.21-0.057
		c-0.034-0.011-0.069-0.021-0.103-0.031c-0.033-0.012-0.067-0.022-0.102-0.033c-0.033-0.012-0.066-0.023-0.098-0.035
		c-0.033-0.012-0.066-0.024-0.099-0.037c-0.014-0.006-0.028-0.011-0.043-0.016c-0.015-0.006-0.028-0.011-0.043-0.017
		c-0.019-0.007-0.038-0.013-0.058-0.021c-0.019-0.006-0.037-0.014-0.057-0.021c-0.021-0.008-0.041-0.018-0.061-0.027
		c-0.02-0.011-0.038-0.021-0.058-0.031c-0.062-0.029-0.122-0.06-0.181-0.092c-0.059-0.031-0.115-0.064-0.171-0.102
		c-0.024-0.015-0.048-0.029-0.069-0.047c-0.023-0.016-0.045-0.031-0.068-0.047c-0.012-0.01-0.024-0.019-0.036-0.027
		c-0.013-0.01-0.024-0.018-0.036-0.027c-0.001,0-0.002,0-0.003-0.002c-0.001,0-0.001-0.002-0.003-0.002
		c-0.006-0.004-0.012-0.01-0.018-0.014s-0.011-0.008-0.018-0.013c-0.021-0.019-0.045-0.036-0.066-0.054
		c-0.023-0.019-0.045-0.037-0.066-0.057l0,0c-0.001,0-0.001,0-0.002,0c-0.002-0.002-0.004-0.004-0.005-0.005
		c-0.002-0.002-0.003-0.003-0.005-0.005c-0.004-0.003-0.008-0.006-0.011-0.009c-0.004-0.003-0.007-0.007-0.011-0.009
		c0,0,0,0-0.001-0.001l-0.001-0.001c-0.023-0.021-0.047-0.043-0.07-0.064c-0.021-0.023-0.045-0.045-0.066-0.068
		c-0.008-0.008-0.016-0.016-0.021-0.023c-0.008-0.01-0.016-0.018-0.023-0.025c-0.031-0.033-0.063-0.067-0.093-0.102
		c-0.03-0.035-0.061-0.071-0.09-0.107c-0.003-0.003-0.005-0.007-0.008-0.01s-0.005-0.007-0.007-0.01
		c-0.019-0.023-0.037-0.045-0.054-0.067c-0.018-0.022-0.034-0.046-0.051-0.07c-0.01-0.015-0.02-0.028-0.03-0.044
		c-0.01-0.014-0.02-0.029-0.028-0.044c-0.04-0.062-0.079-0.124-0.116-0.188c-0.037-0.065-0.073-0.133-0.107-0.203c0,0,0,0,0-0.001
		s-0.001-0.001-0.001-0.001h-0.001l0,0v-0.001v-0.001c-0.01-0.021-0.02-0.043-0.03-0.064c-0.01-0.021-0.019-0.043-0.029-0.065
		c0-0.001,0-0.001,0-0.001c-0.001-0.001-0.001-0.002-0.001-0.002c-0.002-0.002-0.002-0.005-0.004-0.008
		c0-0.002-0.002-0.005-0.003-0.008c-0.003-0.008-0.008-0.018-0.011-0.025c-0.004-0.01-0.008-0.019-0.012-0.027
		c-0.005-0.011-0.01-0.021-0.015-0.034c-0.005-0.012-0.01-0.023-0.015-0.035c-0.009-0.022-0.018-0.046-0.026-0.069
		s-0.019-0.047-0.026-0.071v-0.001c-0.001,0-0.001,0-0.001,0c-0.004-0.012-0.009-0.024-0.013-0.037
		c-0.004-0.012-0.008-0.023-0.013-0.036s-0.009-0.024-0.013-0.037s-0.008-0.024-0.012-0.037c-0.017-0.052-0.032-0.104-0.047-0.157
		c-0.014-0.052-0.028-0.104-0.041-0.157c-0.002-0.011-0.005-0.022-0.008-0.034s-0.006-0.022-0.008-0.034
		c-0.001-0.002-0.002-0.003-0.002-0.005s0-0.004-0.002-0.006c-0.001-0.007-0.002-0.013-0.004-0.02
		c-0.001-0.007-0.002-0.013-0.004-0.02c0-0.002-0.001-0.004-0.002-0.005c0-0.002,0-0.004,0-0.006
		c-0.008-0.031-0.014-0.063-0.021-0.095c-0.006-0.031-0.012-0.063-0.019-0.095c-0.002-0.011-0.004-0.021-0.005-0.031
		c-0.002-0.011-0.002-0.021-0.004-0.031c-0.004-0.017-0.006-0.032-0.008-0.049c-0.003-0.017-0.006-0.032-0.008-0.05
		c-0.002-0.005-0.002-0.012-0.004-0.018c0-0.006-0.001-0.012-0.002-0.018v-0.002c0-0.002-0.001-0.003-0.001-0.004
		s0-0.002-0.001-0.002v-0.002c-0.012-0.073-0.021-0.146-0.031-0.222c-0.009-0.074-0.017-0.149-0.023-0.224
		c-0.003-0.04-0.005-0.078-0.007-0.118c-0.003-0.04-0.005-0.079-0.006-0.12c0-0.009-0.001-0.018-0.001-0.026s0-0.018,0-0.026l0,0
		v-0.001c0-0.009,0-0.017,0-0.026c0-0.008,0-0.016,0-0.025c0-0.014,0-0.026,0-0.039c0-0.014,0-0.026,0-0.04c0-0.013,0-0.026,0-0.039
		c0-0.014,0-0.026,0-0.04c0-0.005,0-0.01,0-0.014s0-0.009,0-0.014v-0.004v-0.005c0-0.024,0-0.048,0-0.071c0-0.024,0-0.048,0-0.071
		c0-0.008,0.001-0.015,0.002-0.022c0-0.008,0-0.016,0-0.023c0-0.021,0.001-0.043,0.002-0.064c0-0.021,0.002-0.043,0.003-0.064
		c0-0.002,0-0.005,0.001-0.007c0-0.003,0-0.005,0-0.008c0-0.007,0-0.015,0-0.021c0.002-0.008,0.002-0.015,0.002-0.022
		c0,0,0,0,0-0.001s0-0.001,0-0.003s0-0.004,0.001-0.006c0-0.003,0-0.005,0.001-0.008c0,0,0,0,0-0.001s0-0.001,0-0.002
		c0-0.011,0.002-0.021,0.002-0.03c0.002-0.011,0.004-0.021,0.005-0.031c0.001-0.008,0.001-0.016,0.003-0.024
		c0.001-0.008,0.002-0.016,0.002-0.024c0.002-0.006,0.002-0.011,0.002-0.017c0.002-0.005,0.002-0.011,0.002-0.017
		c0.002-0.011,0.002-0.021,0.004-0.031c0-0.012,0.002-0.021,0.002-0.033c0.001-0.006,0.002-0.012,0.002-0.018
		c0.001-0.006,0.002-0.012,0.002-0.018c0.007-0.069,0.014-0.139,0.021-0.207c0.008-0.069,0.018-0.139,0.029-0.208v-0.003v-0.002
		c0.004-0.02,0.007-0.037,0.01-0.057c0.004-0.018,0.008-0.037,0.012-0.056c0.01-0.044,0.02-0.089,0.03-0.134s0.021-0.089,0.03-0.133
		c0.002-0.007,0.004-0.013,0.005-0.02c0.001-0.006,0.003-0.012,0.005-0.02c0.01-0.044,0.018-0.089,0.027-0.133
		c0.009-0.045,0.02-0.09,0.031-0.136c0.008-0.03,0.017-0.06,0.025-0.089c0.01-0.029,0.02-0.06,0.027-0.09
		c0.025-0.087,0.051-0.174,0.078-0.262c0.028-0.089,0.059-0.177,0.089-0.265c0.013-0.038,0.027-0.075,0.041-0.112
		c0.015-0.037,0.029-0.076,0.044-0.113c0.006-0.015,0.011-0.029,0.017-0.045c0.006-0.014,0.012-0.029,0.017-0.044
		c0.005-0.01,0.008-0.02,0.012-0.029s0.008-0.019,0.012-0.028c0.041-0.103,0.083-0.205,0.127-0.308
		c0.045-0.103,0.092-0.206,0.141-0.31c0,0,0,0,0.001,0c0-0.002,0-0.002,0.001-0.002c0.008-0.019,0.018-0.037,0.027-0.057
		c0.01-0.018,0.02-0.037,0.028-0.055c0.003-0.007,0.007-0.012,0.01-0.019c0.003-0.006,0.007-0.013,0.009-0.019
		c0.027-0.057,0.055-0.111,0.084-0.168c0.027-0.057,0.057-0.112,0.086-0.168c0.021-0.041,0.042-0.081,0.063-0.121
		c0.021-0.041,0.042-0.082,0.065-0.123c0.006-0.012,0.014-0.023,0.021-0.037c0.007-0.012,0.014-0.023,0.021-0.035
		c0.008-0.016,0.016-0.03,0.025-0.045c0.01-0.016,0.019-0.029,0.027-0.045c0.003-0.005,0.006-0.01,0.01-0.016
		c0.002-0.004,0.006-0.01,0.008-0.015c0.051-0.091,0.104-0.181,0.156-0.271c0.054-0.091,0.109-0.182,0.166-0.272
		c0.002-0.002,0.002-0.004,0.004-0.006c0-0.002,0.002-0.004,0.003-0.006c0.075-0.117,0.153-0.236,0.234-0.355
		c0.08-0.118,0.163-0.237,0.248-0.357c0,0,0.001,0,0.001-0.001s0-0.001,0.001-0.001c0.06-0.084,0.121-0.168,0.183-0.252
		c0.063-0.084,0.127-0.168,0.191-0.252c0.002-0.002,0.004-0.006,0.006-0.008s0.003-0.004,0.005-0.007
		c0.028-0.037,0.058-0.075,0.086-0.112c0.029-0.038,0.06-0.075,0.089-0.113c0.009-0.011,0.017-0.021,0.025-0.032
		s0.018-0.021,0.027-0.032c0.008-0.011,0.016-0.021,0.025-0.033c0.009-0.01,0.018-0.021,0.026-0.032s0.018-0.021,0.026-0.032
		c0.01-0.011,0.018-0.021,0.027-0.033c0.012-0.016,0.023-0.03,0.035-0.045c0.013-0.016,0.025-0.03,0.037-0.046
		c0.01-0.011,0.019-0.022,0.027-0.033c0.01-0.011,0.02-0.022,0.028-0.034c0.007-0.008,0.014-0.018,0.021-0.025
		c0.008-0.008,0.015-0.018,0.021-0.025c0.017-0.021,0.033-0.04,0.049-0.061c0.018-0.02,0.033-0.039,0.051-0.059
		c0.017-0.02,0.033-0.04,0.05-0.061c0.017-0.02,0.034-0.039,0.05-0.059c0.01-0.012,0.02-0.021,0.029-0.033
		c0.01-0.011,0.018-0.021,0.027-0.033c0.021-0.023,0.041-0.047,0.061-0.069s0.04-0.046,0.061-0.07
		c0.016-0.017,0.031-0.035,0.047-0.054c0.016-0.017,0.03-0.035,0.047-0.053c0.006-0.007,0.012-0.014,0.019-0.021
		c0.006-0.008,0.013-0.015,0.019-0.022c0.006-0.007,0.014-0.015,0.02-0.022s0.014-0.015,0.02-0.022
		c0.054-0.061,0.107-0.12,0.162-0.182c0.057-0.061,0.111-0.121,0.168-0.181c0.035-0.038,0.069-0.075,0.104-0.113
		c0.035-0.037,0.071-0.074,0.106-0.111c0-0.001,0-0.001,0-0.002c0.001,0,0.001-0.001,0.002-0.001
		c0.025-0.027,0.049-0.055,0.074-0.081c0.025-0.027,0.051-0.054,0.076-0.081c0.119-0.123,0.239-0.247,0.361-0.37
		c0.124-0.123,0.25-0.246,0.376-0.37c0.025-0.024,0.052-0.048,0.078-0.073c0.026-0.024,0.053-0.049,0.079-0.074
		c0.008-0.008,0.018-0.016,0.025-0.025c0.01-0.008,0.018-0.016,0.026-0.023c0.003-0.004,0.007-0.008,0.01-0.01
		c0.004-0.004,0.007-0.008,0.011-0.01v-0.001c0,0,0,0,0.001,0c0.001-0.001,0.003-0.003,0.003-0.003
		c0.002-0.001,0.002-0.002,0.004-0.004s0.005-0.004,0.008-0.006c0.002-0.003,0.004-0.006,0.006-0.008
		c0.012-0.011,0.023-0.021,0.035-0.032s0.022-0.021,0.033-0.032c0.001,0,0.001,0,0.001,0s0,0,0.001-0.001
		c0.011-0.011,0.021-0.021,0.033-0.032c0.012-0.01,0.022-0.021,0.033-0.031c0.001,0,0.001-0.001,0.002-0.001
		c0-0.001,0-0.001,0.001-0.001c0.005-0.006,0.012-0.012,0.018-0.018c0.007-0.006,0.013-0.012,0.019-0.017s0.012-0.011,0.016-0.016
		c0.006-0.005,0.012-0.011,0.018-0.016c0.022-0.021,0.045-0.042,0.067-0.063c0.022-0.021,0.046-0.041,0.068-0.063
		c0.001-0.001,0.001-0.002,0.002-0.002c0.001-0.001,0.001-0.002,0.003-0.002c0.002-0.003,0.004-0.005,0.007-0.008
		c0.003-0.002,0.005-0.004,0.007-0.006c0.017-0.016,0.033-0.031,0.05-0.045c0.017-0.016,0.033-0.031,0.05-0.047
		c0.016-0.014,0.031-0.027,0.047-0.042s0.03-0.028,0.047-0.042c0-0.002,0.002-0.003,0.003-0.004s0.003-0.002,0.004-0.003
		c0.013-0.011,0.026-0.022,0.038-0.034c0.013-0.012,0.025-0.023,0.039-0.034c0.037-0.034,0.074-0.067,0.111-0.101
		s0.074-0.065,0.113-0.099c0.001-0.001,0.002-0.003,0.004-0.005c0.002-0.001,0.003-0.002,0.005-0.004
		c0.038-0.033,0.075-0.066,0.114-0.1c0.038-0.034,0.077-0.066,0.115-0.101c0.002-0.001,0.003-0.001,0.004-0.003
		c0.001,0,0.002-0.001,0.002-0.002c0.014-0.012,0.027-0.022,0.041-0.034c0.013-0.012,0.025-0.022,0.039-0.034
		c0.039-0.035,0.078-0.068,0.116-0.104c0.039-0.034,0.078-0.068,0.118-0.102c0.006-0.006,0.012-0.011,0.018-0.016
		c0.006-0.004,0.011-0.008,0.017-0.013c0.05-0.043,0.101-0.085,0.151-0.128s0.101-0.085,0.151-0.127
		c0.001-0.002,0.003-0.004,0.005-0.005s0.004-0.003,0.005-0.005c0.007-0.005,0.013-0.01,0.019-0.015s0.014-0.01,0.02-0.015
		c0,0,0,0,0.001,0c0-0.002,0.001-0.002,0.001-0.002c0.008-0.006,0.016-0.013,0.024-0.02c0.009-0.006,0.017-0.014,0.024-0.02
		c0.135-0.111,0.27-0.223,0.406-0.334c0.138-0.111,0.275-0.223,0.417-0.334c0.002-0.002,0.005-0.004,0.007-0.006
		s0.005-0.004,0.008-0.005c0-0.001,0-0.001,0-0.001h0.001c0.001-0.001,0.001-0.002,0.002-0.002s0.001-0.002,0.002-0.002
		c0.01-0.008,0.021-0.016,0.029-0.023c0.011-0.007,0.021-0.015,0.03-0.022c0.004-0.003,0.006-0.005,0.009-0.007
		s0.006-0.004,0.009-0.006c0.008-0.008,0.018-0.014,0.025-0.021s0.018-0.013,0.025-0.02c0.005-0.003,0.01-0.007,0.014-0.011
		c0.004-0.003,0.009-0.006,0.014-0.01c0.01-0.008,0.021-0.017,0.032-0.025c0.011-0.008,0.022-0.017,0.033-0.025
		c0.003-0.002,0.005-0.003,0.007-0.004c0.002-0.002,0.003-0.004,0.006-0.005c0.052-0.04,0.104-0.08,0.156-0.12
		c0.052-0.039,0.104-0.079,0.157-0.119h0.001c0,0,0.001-0.001,0.001-0.002c0.014-0.01,0.026-0.02,0.04-0.029s0.027-0.02,0.04-0.03
		c0.042-0.032,0.083-0.063,0.124-0.097c0.043-0.031,0.084-0.063,0.126-0.096c0.019-0.013,0.036-0.025,0.054-0.04
		c0.018-0.013,0.035-0.026,0.054-0.04c0.164-0.123,0.33-0.244,0.498-0.365c0.169-0.121,0.338-0.242,0.509-0.363
		c0.057-0.04,0.115-0.08,0.174-0.119c0.057-0.041,0.115-0.08,0.173-0.119c0.028-0.021,0.058-0.041,0.087-0.061
		s0.057-0.039,0.086-0.059c0.02-0.014,0.041-0.027,0.061-0.041c0.021-0.014,0.041-0.027,0.062-0.041
		c0.073-0.051,0.146-0.103,0.221-0.153c0.073-0.05,0.147-0.101,0.223-0.151c0.067-0.045,0.135-0.09,0.202-0.135
		c0.068-0.045,0.135-0.089,0.203-0.133c0.046-0.031,0.092-0.061,0.137-0.091c0.047-0.03,0.092-0.06,0.139-0.089
		c0.016-0.012,0.033-0.022,0.049-0.033c0.018-0.011,0.033-0.021,0.051-0.032c0.121-0.079,0.242-0.157,0.365-0.235
		c0.123-0.079,0.246-0.157,0.371-0.236c0.007-0.004,0.014-0.008,0.02-0.012c0.007-0.004,0.014-0.008,0.02-0.012
		c0.005-0.004,0.011-0.007,0.016-0.01c0.006-0.004,0.012-0.007,0.017-0.011c0.023-0.015,0.048-0.03,0.071-0.044
		c0.023-0.015,0.048-0.029,0.071-0.045c0.015-0.008,0.028-0.018,0.044-0.026c0.014-0.009,0.029-0.018,0.043-0.026
		c0.02-0.012,0.039-0.023,0.058-0.035c0.019-0.014,0.038-0.024,0.058-0.037c0.051-0.031,0.104-0.063,0.154-0.094
		c0.053-0.031,0.104-0.063,0.155-0.095c0-0.001,0-0.001,0.001-0.001c0,0,0,0,0.001,0c0.006-0.004,0.013-0.008,0.019-0.012
		s0.012-0.007,0.018-0.012c0.031-0.018,0.063-0.036,0.093-0.055c0.03-0.02,0.062-0.038,0.092-0.057
		c0.009-0.005,0.018-0.01,0.026-0.015c0.008-0.005,0.016-0.01,0.024-0.015c0.037-0.021,0.073-0.045,0.11-0.067
		c0.036-0.022,0.072-0.045,0.109-0.066c0.074-0.044,0.148-0.088,0.225-0.132s0.151-0.088,0.229-0.132
		c0.006-0.003,0.011-0.007,0.018-0.011c0.006-0.003,0.012-0.006,0.018-0.01c0.01-0.006,0.019-0.012,0.027-0.016
		c0.01-0.006,0.02-0.012,0.028-0.018c0.011-0.006,0.021-0.012,0.032-0.018c0.01-0.006,0.021-0.012,0.031-0.018
		c0.004-0.004,0.01-0.006,0.014-0.009c0.005-0.003,0.01-0.005,0.014-0.008c0.016-0.009,0.031-0.019,0.046-0.026
		c0.015-0.01,0.03-0.019,0.046-0.027c0.086-0.051,0.17-0.101,0.256-0.151c0.085-0.05,0.171-0.101,0.258-0.15
		c0.004-0.001,0.008-0.003,0.012-0.005c0.004-0.003,0.008-0.005,0.012-0.007c0.008-0.004,0.016-0.009,0.023-0.013
		c0.008-0.005,0.017-0.01,0.023-0.014c0.12-0.068,0.241-0.137,0.362-0.205c0.122-0.066,0.243-0.135,0.366-0.201
		c0.033-0.018,0.065-0.037,0.098-0.055c0.033-0.018,0.066-0.036,0.1-0.055c0,0,0.002,0,0.004-0.001c0-0.001,0.002-0.001,0.003-0.002
		s0.003-0.001,0.004-0.003c0.001,0,0.003-0.002,0.005-0.002c0.045-0.025,0.09-0.049,0.134-0.074
		c0.046-0.023,0.091-0.049,0.136-0.073c0.018-0.01,0.036-0.019,0.055-0.028c0.018-0.011,0.037-0.021,0.055-0.03
		c0.002-0.001,0.004-0.002,0.006-0.003s0.003-0.002,0.004-0.003c0.032-0.017,0.063-0.034,0.095-0.05
		c0.032-0.018,0.063-0.035,0.095-0.052c0.012-0.007,0.023-0.013,0.036-0.02c0.012-0.007,0.023-0.013,0.034-0.02
		c0.073-0.038,0.146-0.076,0.219-0.114c0.074-0.038,0.146-0.076,0.22-0.115c0.14-0.074,0.28-0.148,0.421-0.222
		s0.281-0.147,0.426-0.221c0.013-0.007,0.025-0.013,0.038-0.021c0.014-0.007,0.026-0.014,0.039-0.02
		c0.104-0.054,0.211-0.106,0.317-0.16c0.105-0.053,0.213-0.105,0.318-0.158c0.073-0.035,0.146-0.072,0.219-0.109
		s0.145-0.072,0.219-0.107c0.05-0.025,0.099-0.05,0.148-0.074c0.049-0.025,0.099-0.05,0.148-0.072
		c0.305-0.149,0.613-0.297,0.924-0.442s0.624-0.29,0.939-0.435c0.029-0.014,0.059-0.027,0.089-0.041
		c0.029-0.014,0.06-0.027,0.089-0.041c0.074-0.033,0.148-0.066,0.222-0.1c0.074-0.033,0.148-0.066,0.224-0.102
		c0.348-0.155,0.697-0.311,1.051-0.465c0.354-0.153,0.709-0.307,1.068-0.455c0.018-0.009,0.036-0.016,0.055-0.023
		c0.018-0.007,0.035-0.014,0.053-0.021c0.338-0.141,0.678-0.28,1.021-0.417c0.342-0.138,0.688-0.273,1.035-0.409
		c0.098-0.038,0.197-0.076,0.295-0.114c0.1-0.038,0.197-0.076,0.297-0.115c0.361-0.137,0.725-0.274,1.09-0.41
		c0.365-0.135,0.732-0.269,1.103-0.4c0.005-0.002,0.009-0.003,0.013-0.005c0.006-0.002,0.01-0.003,0.014-0.005
		c0.002-0.002,0.004-0.002,0.005-0.002c0.001-0.001,0.003-0.002,0.004-0.002c0.218-1.076,0.385-2.177,0.497-3.299
		c0.113-1.123,0.173-2.268,0.173-3.436c0-0.01-0.001-0.02-0.001-0.029s-0.001-0.02-0.001-0.029
		c-0.001-0.316-0.011-0.631-0.026-0.942c-0.018-0.312-0.041-0.622-0.068-0.931c-0.008-0.088-0.016-0.176-0.025-0.263
		s-0.02-0.176-0.029-0.264c-0.033-0.294-0.071-0.586-0.115-0.876c-0.043-0.291-0.093-0.578-0.15-0.865
		c-0.004-0.023-0.008-0.047-0.012-0.07s-0.008-0.047-0.012-0.07c-0.064-0.313-0.138-0.624-0.219-0.932
		c-0.078-0.308-0.166-0.612-0.258-0.914c-0.018-0.064-0.037-0.127-0.057-0.189s-0.04-0.125-0.061-0.188
		c-0.045-0.139-0.09-0.276-0.138-0.414c-0.047-0.137-0.095-0.273-0.145-0.41c-0.001,0-0.001,0-0.001,0l0,0
		c-0.014-0.039-0.027-0.078-0.043-0.117c-0.014-0.039-0.028-0.076-0.043-0.115l0,0l0,0c-0.015-0.039-0.029-0.078-0.045-0.116
		c-0.014-0.038-0.029-0.077-0.044-0.116c-0.009-0.019-0.015-0.037-0.022-0.057s-0.016-0.039-0.023-0.059
		c-0.001-0.002-0.002-0.005-0.004-0.008c0-0.002-0.002-0.006-0.002-0.008c-0.01-0.023-0.02-0.047-0.029-0.072
		c-0.01-0.023-0.02-0.047-0.029-0.07l0,0l0,0c-0.145-0.355-0.299-0.707-0.463-1.052c-0.162-0.347-0.336-0.687-0.517-1.022
		c-0.001-0.001-0.001-0.002-0.001-0.003c-0.001-0.001-0.002-0.001-0.002-0.003c-1.813-3.334-4.486-6.135-7.723-8.101
		s-7.036-3.099-11.099-3.099c-3.599,0-6.988,0.889-9.964,2.458c-2.975,1.568-5.536,3.817-7.477,6.538l0,0v0.001h-0.001h-0.001
		v-0.001l0,0c-1.939-2.721-4.501-4.969-7.476-6.538c-2.976-1.569-6.366-2.458-9.964-2.458c-4.063,0-7.862,1.133-11.099,3.099
		c-3.236,1.966-5.91,4.767-7.723,8.101c0,0.002-0.001,0.002-0.001,0.003c-0.001,0.001-0.001,0.002-0.002,0.003
		c-0.181,0.336-0.354,0.676-0.517,1.022c-0.164,0.345-0.318,0.696-0.463,1.052l0,0l0,0c-0.01,0.023-0.02,0.047-0.029,0.07
		c-0.009,0.025-0.019,0.049-0.028,0.072c-0.001,0.002-0.002,0.006-0.003,0.008c-0.001,0.003-0.002,0.006-0.003,0.008
		c-0.008,0.02-0.015,0.039-0.023,0.059s-0.015,0.038-0.022,0.057c-0.016,0.039-0.03,0.078-0.045,0.116
		c-0.015,0.038-0.029,0.077-0.044,0.116l0,0c0,0,0,0,0,0c-0.014,0.039-0.029,0.076-0.043,0.115
		c-0.014,0.039-0.028,0.078-0.042,0.117l0,0c0,0,0,0,0,0c-0.049,0.137-0.098,0.273-0.145,0.41c-0.047,0.138-0.093,0.275-0.138,0.414
		c-0.02,0.063-0.04,0.125-0.06,0.188c-0.02,0.063-0.039,0.125-0.058,0.189c-0.091,0.302-0.178,0.606-0.258,0.914
		c-0.08,0.308-0.153,0.618-0.218,0.932c-0.004,0.023-0.008,0.047-0.011,0.07c-0.004,0.023-0.008,0.047-0.012,0.07
		c-0.058,0.287-0.107,0.574-0.151,0.865c-0.044,0.29-0.082,0.582-0.115,0.876c-0.01,0.088-0.02,0.177-0.029,0.264
		s-0.018,0.175-0.026,0.263c-0.027,0.309-0.051,0.619-0.067,0.931c-0.016,0.312-0.026,0.626-0.027,0.942c0,0.01,0,0.02-0.001,0.029
		c0,0.01-0.001,0.02-0.001,0.029c0,1.168,0.059,2.313,0.172,3.436c0.113,1.122,0.281,2.223,0.498,3.299
		c0.002,0,0.003,0.001,0.004,0.002c0.001,0,0.003,0,0.004,0.002c0.005,0.002,0.009,0.003,0.014,0.005s0.009,0.003,0.013,0.005
		c0.371,0.132,0.738,0.266,1.104,0.4c0.365,0.136,0.728,0.273,1.089,0.41c0.099,0.039,0.198,0.077,0.297,0.115
		s0.197,0.076,0.295,0.114c0.347,0.136,0.693,0.271,1.036,0.409c0.343,0.137,0.684,0.276,1.021,0.417
		c0.018,0.007,0.036,0.014,0.054,0.021c0.018,0.008,0.036,0.015,0.053,0.023c0.36,0.148,0.716,0.302,1.069,0.455
		c0.353,0.154,0.703,0.31,1.051,0.465c0.075,0.035,0.149,0.068,0.223,0.102c0.074,0.033,0.148,0.066,0.222,0.1
		c0.03,0.014,0.059,0.027,0.089,0.041s0.059,0.027,0.088,0.041c0.316,0.145,0.629,0.289,0.94,0.435
		c0.311,0.146,0.619,0.293,0.923,0.442c0.05,0.022,0.1,0.047,0.149,0.072c0.05,0.024,0.099,0.049,0.148,0.074
		c0.074,0.035,0.147,0.07,0.219,0.107c0.073,0.037,0.145,0.074,0.218,0.109c0.106,0.053,0.213,0.105,0.319,0.158
		c0.106,0.054,0.212,0.106,0.317,0.16c0.013,0.006,0.026,0.013,0.039,0.02c0.013,0.008,0.026,0.014,0.039,0.021
		c0.144,0.073,0.285,0.147,0.425,0.221c0.14,0.073,0.281,0.147,0.421,0.222c0.073,0.039,0.146,0.077,0.219,0.115
		s0.146,0.076,0.219,0.114c0.012,0.007,0.023,0.013,0.035,0.02s0.024,0.013,0.036,0.02c0.032,0.017,0.063,0.034,0.095,0.052
		c0.031,0.016,0.062,0.033,0.094,0.05c0.002,0.001,0.003,0.002,0.005,0.003c0.001,0.001,0.003,0.002,0.005,0.003
		c0.019,0.01,0.037,0.02,0.056,0.03c0.018,0.01,0.036,0.019,0.055,0.028c0.045,0.024,0.089,0.05,0.134,0.073
		c0.045,0.025,0.09,0.049,0.135,0.074c0.001,0,0.003,0.002,0.004,0.002c0.001,0.002,0.003,0.002,0.004,0.003
		c0.001,0.001,0.002,0.001,0.003,0.002s0.002,0.001,0.004,0.001c0.033,0.019,0.066,0.037,0.099,0.055s0.065,0.037,0.098,0.055
		c0.123,0.066,0.245,0.135,0.366,0.201c0.121,0.068,0.241,0.137,0.362,0.205c0.007,0.004,0.016,0.009,0.023,0.014
		c0.008,0.004,0.016,0.009,0.023,0.013c0.004,0.002,0.008,0.004,0.012,0.007c0.004,0.002,0.008,0.004,0.012,0.005
		c0.087,0.05,0.173,0.101,0.259,0.15c0.085,0.051,0.17,0.101,0.255,0.151c0.015,0.009,0.03,0.018,0.046,0.027
		c0.015,0.008,0.03,0.018,0.045,0.026c0.005,0.003,0.01,0.005,0.015,0.008c0.004,0.003,0.009,0.005,0.014,0.009
		c0.011,0.006,0.021,0.012,0.032,0.018c0.011,0.006,0.021,0.012,0.032,0.018c0.009,0.006,0.019,0.012,0.028,0.018
		c0.009,0.004,0.019,0.01,0.028,0.016c0.006,0.004,0.012,0.007,0.018,0.01c0.006,0.004,0.012,0.008,0.018,0.011
		c0.076,0.044,0.152,0.088,0.228,0.132c0.075,0.044,0.15,0.088,0.225,0.132c0.037,0.021,0.073,0.044,0.11,0.066
		s0.073,0.046,0.11,0.067c0.008,0.005,0.016,0.01,0.024,0.015c0.009,0.005,0.018,0.01,0.026,0.015
		c0.031,0.019,0.062,0.037,0.092,0.057c0.031,0.019,0.062,0.037,0.092,0.055c0.006,0.005,0.012,0.008,0.018,0.012
		c0.006,0.004,0.013,0.008,0.019,0.012c0,0,0,0,0,0c0,0,0,0,0,0.001c0.052,0.031,0.104,0.063,0.155,0.095
		c0.052,0.031,0.103,0.063,0.155,0.094c0.019,0.013,0.038,0.023,0.058,0.037c0.019,0.012,0.039,0.023,0.057,0.035
		c0.015,0.009,0.029,0.018,0.043,0.026s0.029,0.019,0.044,0.026c0.023,0.016,0.047,0.03,0.071,0.045
		c0.024,0.014,0.048,0.029,0.071,0.044c0.005,0.004,0.011,0.007,0.016,0.011c0.006,0.003,0.011,0.006,0.017,0.01
		c0.006,0.004,0.013,0.008,0.019,0.012s0.013,0.008,0.02,0.012c0.125,0.079,0.248,0.157,0.372,0.236
		c0.123,0.078,0.245,0.156,0.365,0.235c0.017,0.011,0.033,0.021,0.05,0.032c0.017,0.011,0.033,0.021,0.049,0.033
		c0.046,0.029,0.092,0.059,0.138,0.089c0.046,0.03,0.092,0.06,0.137,0.091c0.068,0.044,0.136,0.088,0.203,0.133
		c0.068,0.045,0.135,0.09,0.202,0.135c0.075,0.051,0.149,0.102,0.223,0.151c0.074,0.051,0.147,0.103,0.221,0.153
		c0.021,0.014,0.041,0.027,0.061,0.041s0.041,0.027,0.061,0.041c0.028,0.02,0.057,0.039,0.086,0.059
		c0.028,0.02,0.058,0.04,0.086,0.061c0.058,0.039,0.116,0.078,0.174,0.119c0.059,0.039,0.116,0.079,0.173,0.119
		c0.171,0.121,0.341,0.242,0.508,0.363c0.168,0.121,0.334,0.242,0.499,0.365c0.018,0.014,0.036,0.027,0.053,0.04
		c0.018,0.015,0.036,0.027,0.054,0.04c0.042,0.032,0.084,0.064,0.125,0.096c0.042,0.033,0.083,0.064,0.125,0.097
		c0.013,0.011,0.026,0.021,0.04,0.03c0.013,0.01,0.026,0.02,0.039,0.029c0,0.001,0.001,0.002,0.001,0.002c0.001,0,0.001,0,0.002,0
		c0.053,0.04,0.104,0.08,0.157,0.119c0.052,0.04,0.104,0.08,0.156,0.12c0.002,0.001,0.004,0.003,0.006,0.005
		c0.002,0.001,0.004,0.002,0.006,0.004c0.011,0.009,0.022,0.018,0.033,0.025c0.011,0.009,0.022,0.018,0.033,0.025
		c0.004,0.004,0.008,0.007,0.013,0.01c0.004,0.004,0.009,0.008,0.013,0.011c0.009,0.007,0.017,0.013,0.025,0.02
		c0.009,0.007,0.017,0.013,0.026,0.021c0.003,0.002,0.005,0.004,0.009,0.006c0.003,0.002,0.005,0.004,0.008,0.007
		c0.01,0.008,0.02,0.016,0.03,0.022c0.01,0.008,0.02,0.016,0.03,0.023c0,0,0.001,0.002,0.002,0.002c0,0,0.001,0.001,0.001,0.002
		c0,0,0,0,0.001,0c0,0,0,0,0.001,0.001c0.002,0.001,0.004,0.003,0.007,0.005c0.003,0.002,0.005,0.004,0.007,0.006
		c0.141,0.111,0.279,0.223,0.417,0.334c0.137,0.111,0.272,0.223,0.407,0.334c0.008,0.006,0.016,0.014,0.024,0.02
		c0.008,0.007,0.016,0.014,0.025,0.02c0,0,0,0,0.001,0.002h0c0.006,0.005,0.012,0.01,0.019,0.015
		c0.006,0.005,0.012,0.01,0.019,0.015c0.001,0.002,0.003,0.004,0.004,0.005s0.004,0.003,0.005,0.005
		c0.051,0.042,0.102,0.084,0.152,0.127c0.051,0.043,0.101,0.085,0.151,0.128c0.006,0.005,0.011,0.009,0.017,0.013
		c0.005,0.005,0.011,0.01,0.017,0.016c0.04,0.033,0.08,0.067,0.119,0.102c0.039,0.035,0.077,0.068,0.116,0.104
		c0.013,0.012,0.026,0.022,0.04,0.034s0.027,0.022,0.04,0.034c0.001,0.001,0.002,0.002,0.003,0.002
		c0.001,0.002,0.002,0.002,0.003,0.003c0.039,0.034,0.078,0.066,0.116,0.101c0.039,0.033,0.077,0.066,0.114,0.1
		c0.001,0.002,0.003,0.003,0.005,0.004c0.001,0.002,0.003,0.004,0.004,0.005c0.038,0.033,0.075,0.065,0.113,0.099
		c0.037,0.033,0.074,0.066,0.111,0.101c0.013,0.011,0.026,0.022,0.039,0.034s0.025,0.023,0.038,0.034
		c0.001,0.001,0.003,0.002,0.004,0.003s0.002,0.002,0.003,0.004c0.016,0.014,0.031,0.027,0.046,0.042
		c0.016,0.015,0.031,0.028,0.046,0.042c0.017,0.016,0.034,0.031,0.05,0.047c0.017,0.014,0.033,0.029,0.049,0.045
		c0.002,0.002,0.005,0.004,0.007,0.006c0.002,0.003,0.004,0.005,0.007,0.008c0.001,0,0.001,0.001,0.002,0.002
		c0,0,0.001,0.001,0.002,0.002c0.023,0.021,0.045,0.042,0.068,0.063c0.022,0.021,0.045,0.043,0.068,0.063
		c0.005,0.005,0.011,0.011,0.017,0.016s0.011,0.011,0.016,0.016c0.006,0.005,0.013,0.011,0.019,0.017
		c0.006,0.006,0.012,0.012,0.018,0.018c0,0,0.001,0,0.001,0.001c0,0,0,0.001,0.001,0.001c0.012,0.011,0.023,0.021,0.034,0.031
		c0.011,0.012,0.022,0.021,0.034,0.032c0,0.001,0,0.001,0,0.001l0,0c0.012,0.011,0.023,0.021,0.035,0.032
		c0.011,0.011,0.022,0.021,0.034,0.032c0.002,0.002,0.005,0.005,0.007,0.008c0.002,0.002,0.005,0.004,0.008,0.006
		c0.001,0.002,0.002,0.003,0.003,0.004c0.001,0,0.002,0.002,0.003,0.003h0l0,0.001c0.004,0.002,0.007,0.006,0.011,0.01
		c0.003,0.002,0.006,0.006,0.01,0.01c0.009,0.008,0.018,0.016,0.026,0.023c0.009,0.01,0.017,0.018,0.026,0.025
		c0.026,0.025,0.053,0.05,0.079,0.074c0.026,0.025,0.053,0.049,0.078,0.073c0.127,0.124,0.252,0.247,0.375,0.37
		c0.123,0.123,0.244,0.247,0.362,0.37c0.026,0.027,0.051,0.054,0.077,0.081c0.025,0.026,0.05,0.054,0.075,0.081
		c0,0,0,0.001,0.001,0.001c0,0.001,0,0.001,0.001,0.002c0.035,0.037,0.07,0.074,0.106,0.111c0.035,0.038,0.069,0.075,0.104,0.113
		c0.056,0.06,0.112,0.12,0.167,0.181c0.055,0.062,0.11,0.121,0.163,0.182c0.006,0.008,0.013,0.015,0.02,0.022
		c0.006,0.008,0.013,0.016,0.019,0.022c0.006,0.008,0.013,0.015,0.019,0.022c0.007,0.008,0.013,0.015,0.019,0.021
		c0.016,0.018,0.031,0.036,0.046,0.053c0.016,0.019,0.031,0.037,0.047,0.054c0.02,0.024,0.04,0.048,0.06,0.07
		c0.02,0.022,0.04,0.046,0.06,0.069c0.009,0.012,0.019,0.022,0.028,0.033c0.009,0.012,0.018,0.021,0.028,0.033
		c0.017,0.02,0.034,0.039,0.051,0.059c0.017,0.021,0.033,0.041,0.05,0.061c0.016,0.02,0.033,0.039,0.049,0.059
		c0.017,0.021,0.033,0.04,0.049,0.061c0.007,0.008,0.014,0.018,0.021,0.025c0.007,0.008,0.014,0.018,0.021,0.025
		c0.009,0.012,0.019,0.023,0.028,0.034s0.018,0.022,0.027,0.033c0.012,0.016,0.025,0.03,0.037,0.046
		c0.012,0.015,0.024,0.029,0.036,0.045c0.009,0.012,0.018,0.022,0.027,0.033c0.009,0.011,0.017,0.021,0.026,0.032
		c0.009,0.011,0.018,0.022,0.027,0.032c0.008,0.012,0.018,0.022,0.026,0.033c0.009,0.011,0.018,0.021,0.026,0.032
		s0.017,0.021,0.026,0.032c0.03,0.038,0.06,0.075,0.088,0.113c0.029,0.037,0.058,0.075,0.086,0.112
		c0.002,0.003,0.004,0.005,0.006,0.007c0.002,0.002,0.003,0.006,0.005,0.008c0.065,0.084,0.129,0.168,0.191,0.252
		c0.063,0.084,0.124,0.168,0.184,0.252c0.001,0,0.001,0,0.001,0.001c0,0.001,0,0.001,0.001,0.001
		c0.084,0.12,0.167,0.239,0.248,0.357c0.081,0.119,0.159,0.238,0.234,0.355c0.001,0.002,0.002,0.004,0.003,0.006
		c0.001,0.002,0.001,0.004,0.003,0.006c0.057,0.091,0.112,0.182,0.166,0.272c0.054,0.091,0.105,0.181,0.157,0.271
		c0.003,0.005,0.006,0.011,0.009,0.015c0.003,0.006,0.006,0.011,0.009,0.016c0.009,0.016,0.018,0.029,0.027,0.045
		c0.009,0.015,0.018,0.029,0.027,0.045c0.006,0.012,0.014,0.023,0.021,0.035c0.007,0.014,0.015,0.025,0.021,0.037
		c0.022,0.041,0.044,0.082,0.065,0.123c0.021,0.04,0.042,0.08,0.063,0.121c0.03,0.056,0.059,0.111,0.087,0.168
		s0.055,0.111,0.083,0.168c0.003,0.006,0.007,0.013,0.01,0.019c0.003,0.007,0.006,0.012,0.009,0.019
		c0.01,0.018,0.02,0.037,0.029,0.055c0.01,0.02,0.019,0.038,0.028,0.057c0,0,0,0,0,0.002c0,0,0,0,0,0
		c0.049,0.104,0.096,0.207,0.14,0.31c0.045,0.103,0.087,0.205,0.127,0.308c0.004,0.01,0.008,0.019,0.011,0.028
		c0.004,0.01,0.008,0.02,0.012,0.029c0.005,0.015,0.011,0.03,0.017,0.044c0.006,0.016,0.012,0.03,0.018,0.045
		c0.014,0.037,0.029,0.076,0.043,0.113c0.014,0.037,0.027,0.074,0.041,0.112c0.031,0.088,0.061,0.176,0.088,0.265
		c0.028,0.088,0.054,0.175,0.079,0.262c0.008,0.03,0.018,0.061,0.027,0.09s0.019,0.059,0.026,0.089
		c0.012,0.046,0.022,0.091,0.031,0.136c0.009,0.044,0.018,0.089,0.028,0.133c0.001,0.008,0.003,0.014,0.004,0.02
		c0.001,0.007,0.003,0.013,0.005,0.02c0.01,0.044,0.02,0.088,0.031,0.133c0.01,0.045,0.021,0.09,0.029,0.134
		c0.004,0.019,0.008,0.038,0.012,0.056c0.003,0.02,0.006,0.037,0.01,0.057v0.002v0.003c0.012,0.069,0.021,0.139,0.029,0.208
		c0.008,0.068,0.015,0.138,0.021,0.207c0,0.006,0.001,0.012,0.001,0.018s0.002,0.012,0.002,0.018
		c0.001,0.012,0.002,0.021,0.003,0.033c0.001,0.01,0.002,0.021,0.003,0.031c0,0.006,0.001,0.012,0.001,0.017
		c0,0.006,0.001,0.011,0.001,0.017c0.001,0.009,0.002,0.017,0.004,0.024c0,0.009,0.001,0.017,0.002,0.024
		c0.001,0.01,0.002,0.021,0.004,0.031c0.001,0.01,0.002,0.02,0.003,0.03c0,0.001,0,0.001,0,0.002s0,0.001,0,0.001
		c0,0.003,0,0.005,0,0.008c0,0.002,0,0.004,0,0.006s0,0.002,0,0.003s0,0.001,0,0.001c0,0.008,0.001,0.015,0.001,0.022
		c0,0.007,0.001,0.015,0.001,0.021c0,0.003,0,0.005,0,0.008c0,0.002,0,0.005,0,0.007c0.001,0.021,0.002,0.043,0.002,0.064
		c0.001,0.021,0.002,0.043,0.002,0.064c0,0.008,0,0.016,0.001,0.023s0.001,0.015,0.001,0.022c0.001,0.023,0.001,0.047,0,0.071
		c0,0.023,0,0.047,0,0.071v0.005v0.004c0,0.005,0,0.01,0,0.014s0,0.009,0,0.014c0,0.014,0,0.026,0,0.04c0,0.013,0,0.026,0,0.039
		c0,0.014,0,0.026,0,0.04c0,0.013,0,0.025,0,0.039c0,0.01,0,0.018,0,0.025c0,0.01,0,0.018,0,0.026v0.001l0,0
		c0,0.009,0,0.018,0,0.026c0,0.009,0,0.018-0.001,0.026c-0.001,0.041-0.003,0.08-0.005,0.12s-0.004,0.078-0.007,0.118
		c-0.007,0.074-0.015,0.149-0.024,0.224c-0.009,0.075-0.02,0.148-0.031,0.222c0,0,0,0.002,0,0.002c0,0,0,0.001,0,0.002
		s0,0.002,0,0.004c0,0,0,0.002,0,0.002c-0.001,0.006-0.002,0.012-0.002,0.018c-0.001,0.006-0.002,0.013-0.003,0.018
		c-0.003,0.018-0.005,0.033-0.008,0.05s-0.005,0.032-0.008,0.049c-0.001,0.011-0.003,0.021-0.004,0.031s-0.003,0.021-0.005,0.031
		c-0.006,0.032-0.012,0.063-0.019,0.095c-0.007,0.031-0.014,0.063-0.021,0.095c0,0.002-0.001,0.004-0.001,0.006
		c-0.001,0.001-0.001,0.003-0.002,0.005c-0.001,0.007-0.002,0.013-0.004,0.02s-0.003,0.013-0.004,0.02
		c0,0.002-0.001,0.004-0.002,0.006s-0.001,0.003-0.001,0.005c-0.002,0.012-0.005,0.022-0.007,0.034
		c-0.003,0.012-0.006,0.023-0.008,0.034c-0.013,0.053-0.027,0.105-0.041,0.157c-0.014,0.053-0.03,0.105-0.046,0.157
		c-0.004,0.013-0.008,0.024-0.013,0.037c-0.004,0.013-0.008,0.024-0.012,0.037c-0.004,0.013-0.009,0.024-0.013,0.036
		c-0.004,0.013-0.009,0.025-0.013,0.037l0,0v0.001c-0.009,0.024-0.018,0.048-0.027,0.071c-0.009,0.023-0.018,0.047-0.027,0.069
		c-0.005,0.012-0.01,0.023-0.015,0.035c-0.004,0.013-0.01,0.023-0.014,0.034c-0.004,0.009-0.008,0.018-0.011,0.027
		c-0.004,0.008-0.008,0.018-0.011,0.025c-0.001,0.003-0.002,0.006-0.003,0.008c-0.001,0.003-0.002,0.006-0.003,0.008
		c0,0,0,0.001-0.001,0.002c0,0,0,0,0,0.001c-0.01,0.022-0.02,0.044-0.03,0.065c-0.01,0.021-0.02,0.043-0.03,0.064v0.001v0.001
		h-0.001l0,0c0,0,0,0,0,0.001s0,0.001,0,0.001c-0.034,0.07-0.069,0.138-0.107,0.203c-0.037,0.064-0.076,0.127-0.117,0.188
		c-0.01,0.015-0.019,0.03-0.029,0.044c-0.01,0.016-0.02,0.029-0.029,0.044c-0.017,0.024-0.033,0.048-0.051,0.07
		s-0.035,0.044-0.053,0.067c-0.002,0.003-0.005,0.007-0.008,0.01c-0.002,0.003-0.005,0.007-0.007,0.01
		c-0.029,0.036-0.06,0.072-0.09,0.107c-0.031,0.034-0.063,0.068-0.094,0.102c-0.007,0.008-0.015,0.016-0.022,0.025
		c-0.007,0.008-0.014,0.016-0.021,0.023c-0.022,0.023-0.045,0.045-0.067,0.068c-0.023,0.021-0.046,0.043-0.07,0.064
		c0,0,0,0.001,0,0.001c0,0.001-0.001,0.001-0.001,0.001c-0.003,0.002-0.007,0.006-0.01,0.009c-0.003,0.003-0.007,0.006-0.011,0.009
		c-0.001,0.002-0.003,0.003-0.005,0.005c-0.001,0.001-0.004,0.003-0.005,0.005c0,0-0.001,0-0.001,0h0
		c-0.021,0.02-0.043,0.038-0.066,0.057c-0.022,0.018-0.045,0.035-0.068,0.054c-0.006,0.005-0.012,0.009-0.017,0.013
		c-0.006,0.004-0.012,0.01-0.018,0.014c0,0-0.001,0.002-0.002,0.002c-0.001,0.002-0.002,0.002-0.003,0.002
		c-0.012,0.01-0.024,0.018-0.036,0.027c-0.012,0.009-0.024,0.018-0.037,0.027c-0.022,0.016-0.044,0.031-0.068,0.047
		c-0.022,0.018-0.045,0.032-0.069,0.047c-0.056,0.037-0.113,0.07-0.171,0.102c-0.059,0.032-0.119,0.063-0.18,0.092
		c-0.02,0.01-0.039,0.021-0.059,0.031c-0.019,0.01-0.039,0.02-0.06,0.027c-0.019,0.008-0.038,0.016-0.057,0.021
		c-0.02,0.008-0.039,0.014-0.057,0.021c-0.014,0.006-0.028,0.011-0.043,0.017c-0.014,0.005-0.029,0.01-0.043,0.016
		c-0.032,0.013-0.064,0.025-0.097,0.037s-0.066,0.023-0.1,0.035c-0.033,0.011-0.067,0.021-0.101,0.033
		c-0.034,0.01-0.068,0.021-0.103,0.031c-0.069,0.02-0.139,0.039-0.21,0.057s-0.144,0.033-0.218,0.048
		c-0.014,0.003-0.027,0.007-0.041,0.009c-0.013,0.004-0.026,0.007-0.04,0.01c-0.001,0-0.002,0.001-0.002,0.001
		c-0.001,0.001-0.002,0.001-0.003,0.001c-0.003,0-0.005,0-0.007,0.001s-0.005,0.001-0.008,0.001
		c-0.002,0.001-0.004,0.002-0.006,0.002s-0.005,0-0.007,0.001c0,0,0,0,0,0s-0.001,0-0.001,0c-0.053,0.01-0.107,0.019-0.163,0.027
		c-0.056,0.009-0.111,0.016-0.168,0.022c-0.052,0.008-0.105,0.014-0.158,0.02s-0.107,0.012-0.161,0.016
		c-0.02,0.002-0.039,0.004-0.058,0.005c-0.02,0.001-0.038,0.002-0.057,0.003c-0.029,0.003-0.059,0.006-0.089,0.006
		c-0.03,0.002-0.061,0.003-0.09,0.004l0,0h0c-0.01,0.001-0.02,0.002-0.03,0.002c-0.01,0-0.02,0.001-0.03,0.002
		c-0.06,0.003-0.12,0.007-0.181,0.01c-0.061,0.004-0.122,0.007-0.185,0.008H57.16h-0.015h-0.069h-0.069
		c-0.071,0-0.143,0.001-0.215,0c-0.073,0-0.146-0.001-0.219-0.003c-0.002,0-0.005,0-0.007,0c-0.003,0-0.005,0-0.008,0
		c-0.036-0.001-0.072-0.001-0.108-0.003c-0.037-0.001-0.073-0.002-0.11-0.004h-0.008h-0.007c-0.005,0-0.009,0-0.014-0.001
		c-0.005,0-0.009-0.001-0.015-0.001c-0.011,0-0.022-0.001-0.033-0.002c-0.012-0.002-0.023-0.004-0.034-0.004
		c-0.168-0.008-0.34-0.018-0.516-0.031s-0.355-0.028-0.537-0.046c-0.06-0.006-0.118-0.012-0.179-0.019
		c-0.06-0.006-0.12-0.012-0.181-0.019c-0.183-0.02-0.369-0.04-0.558-0.063c-0.188-0.022-0.38-0.048-0.576-0.074
		c-0.044-0.007-0.089-0.014-0.133-0.02c-0.045-0.006-0.09-0.013-0.134-0.019c-0.187-0.026-0.375-0.056-0.566-0.085
		s-0.385-0.061-0.582-0.092c-0.075-0.012-0.15-0.023-0.225-0.035c-0.075-0.012-0.15-0.024-0.226-0.037
		c-0.222-0.036-0.445-0.072-0.671-0.111c-0.227-0.037-0.456-0.077-0.689-0.117c0,0,0,0,0,0.001c0,0,0.001,0.001,0.001,0.001
		c4.728,3.785,9.544,6.682,13.33,8.691c3.787,2.011,6.542,3.134,7.146,3.375l0.05,0.02L71.034,132.125z"/>
</g>
</svg>
